MODULE Loader; (** AUTHOR "fof"; PURPOSE "Object File Loader"; *)

(* cf. Linker *)

IMPORT SYSTEM, KernelLog, Modules, Streams, Files, D := KernelLog, GenericLinker, ObjectFile, Diagnostics, StringPool, Trace, Machine;

CONST
	Ok = 0;
	LinkerError=3400;
	FileNotFound = 3401;
	CommandTrapped* = 3904; (* cf module Commands *)

	TraceLoading = FALSE;
	TraceBlocks = FALSE;
TYPE

	HashEntryIntInt = RECORD
		key,value: SIZE;
	END;
	HashIntArray = POINTER TO ARRAY OF HashEntryIntInt;

	HashEntryIntAny = RECORD
		key: SIZE; value: ANY;
	END;

	HashIntAnyArray = POINTER TO ARRAY OF HashEntryIntAny;

	HashTableInt = OBJECT
	VAR
		table: HashIntArray;
		size: SIZE;
		used-: SIZE;
		maxLoadFactor: FLOAT32;

		(* Interface *)

		PROCEDURE & Init* (initialSize: SIZE);
		BEGIN
			ASSERT(initialSize > 2);
			NEW(table, initialSize);
			size := initialSize;
			used := 0;
			maxLoadFactor := 0.75;
		END Init;

		PROCEDURE Put*(key: SIZE; value: SIZE);
		VAR hash: SIZE;
		BEGIN
			ASSERT(key # 0);
			ASSERT(used < size);
			hash := HashValue(key);
			IF table[hash].key = 0 THEN
				INC(used, 1);
			END;
			table[hash].key := key;
			table[hash].value := value;
			IF (used / size) > maxLoadFactor THEN Grow END;
		END Put;

		PROCEDURE Get*(key: SIZE):SIZE;
		BEGIN
			RETURN table[HashValue(key)].value;
		END Get;

		PROCEDURE Has*(key: SIZE):BOOLEAN;
		BEGIN
			RETURN table[HashValue(key)].key = key;
		END Has;

		PROCEDURE Length*():SIZE;
		BEGIN RETURN used; END Length;

		PROCEDURE Clear*;
		VAR i: SIZE;
		BEGIN FOR i := 0 TO size - 1 DO table[i].key := 0; END; END Clear;

		(* Internals *)

		PROCEDURE HashValue(key: SIZE):SIZE;
		VAR value, h1, h2, i: SIZE;
		BEGIN
			i := 0;
			value := key;
			h1 := key MOD size;
			h2 := 1; (* Linear probing *)
			REPEAT
				value := (h1 + i*h2) MOD size;
				INC(i);
			UNTIL((table[value].key = 0) OR (table[value].key = key) OR (i > size));
			ASSERT((table[value].key = 0) OR (table[value].key = key));
			RETURN value;
		END HashValue;

		PROCEDURE Grow;
		VAR oldTable: HashIntArray; oldSize, i, key: SIZE;
		BEGIN
			oldSize := size;
			oldTable := table;
			Init(size*2);
			FOR i := 0 TO oldSize-1 DO
				key := oldTable[i].key;
				IF key # 0 THEN
					Put(key, oldTable[i].value);
				END;
			END;
		END Grow;

	END HashTableInt;

	HashTableIntAny = OBJECT
	VAR
		table: HashIntAnyArray;
		size: SIZE;
		used-: SIZE;
		maxLoadFactor: FLOAT32;

		(* Interface *)

		PROCEDURE & Init* (initialSize: SIZE);
		BEGIN
			ASSERT(initialSize > 2);
			NEW(table, initialSize);
			size := initialSize;
			used := 0;
			maxLoadFactor := 0.75;
		END Init;

		PROCEDURE Put*(key: SIZE; value: ANY);
		VAR hash: SIZE;
		BEGIN
			ASSERT(key # 0);
			ASSERT(used < size);
			hash := HashValue(key);
			IF table[hash].key = 0 THEN
				INC(used, 1);
			END;
			table[hash].key := key;
			table[hash].value := value;
			IF (used / size) > maxLoadFactor THEN Grow END;
		END Put;

		PROCEDURE Get*(key: SIZE):ANY;
		BEGIN
			RETURN table[HashValue(key)].value;
		END Get;

		PROCEDURE Has*(key: SIZE):BOOLEAN;
		BEGIN
			RETURN table[HashValue(key)].key = key;
		END Has;

		PROCEDURE Length*():SIZE;
		BEGIN RETURN used; END Length;

		PROCEDURE Clear*;
		VAR i: SIZE;
		BEGIN FOR i := 0 TO size - 1 DO table[i].key := 0; END; END Clear;

		(* Interface for integer values *)

		(* Internals *)

		PROCEDURE HashValue(key: SIZE):SIZE;
		VAR value, h1, h2, i:SIZE;
		BEGIN
			i := 0;
			value := key;
			h1 := key MOD size;
			h2 := 1; (* Linear probing *)
			REPEAT
				value := (h1 + i*h2) MOD size;
				INC(i);
			UNTIL((table[value].key = 0) OR (table[value].key = key) OR (i > size));
			ASSERT((table[value].key = 0) OR (table[value].key = key));
			RETURN value;
		END HashValue;

		PROCEDURE Grow;
		VAR oldTable: HashIntAnyArray; oldSize, i, key: SIZE;
		BEGIN
			oldSize := size;
			oldTable := table;
			Init(size*2);
			FOR i := 0 TO oldSize-1 DO
				key := oldTable[i].key;
				IF key # 0 THEN
					Put(key, oldTable[i].value);
				END;
			END;
		END Grow;

	END HashTableIntAny;

	Data=RECORD size, alignment: SIZE; bytes: Modules.Bytes; address: ADDRESS; END;

	Arrangement* = OBJECT (GenericLinker.Arrangement);
	VAR
		code, data: Data;

		PROCEDURE & InitArrangement;
		BEGIN InitData(code); InitData(data);
		END InitArrangement;

		PROCEDURE Preallocate*(CONST section: ObjectFile.Section);
		BEGIN
			ASSERT(section.unit = 8);
			ASSERT(section.bits.GetSize() MOD 8 = 0);
			ASSERT(section.type # ObjectFile.InitCode);
			IF section.type IN {ObjectFile.Code, ObjectFile.BodyCode} THEN
				DoPreallocate(section, code);
			ELSE ASSERT (section.type IN {ObjectFile.Const, ObjectFile.Data});
				DoPreallocate(section, data);
			END;
		END Preallocate;

		PROCEDURE Allocate* (CONST section: ObjectFile.Section): GenericLinker.Address;
		VAR adr: GenericLinker.Address;
		BEGIN
			IF section.type IN {ObjectFile.Code, ObjectFile.BodyCode} THEN
				adr := DoAllocate(section, code);
			ELSE ASSERT(section.type IN {ObjectFile.Const, ObjectFile.Data});
				adr := DoAllocate(section, data);
			END;

			RETURN adr;
		END Allocate;

		PROCEDURE Patch* (pos, value: GenericLinker.Address; offset, bits, unit: ObjectFile.Bits);
		VAR char: CHAR;
		BEGIN
			ASSERT(bits MOD 8 = 0);
			ASSERT(unit = 8);

			WHILE bits > 0 DO
				char := CHR(value);
				SYSTEM.PUT(pos, char);
				value := value DIV 256;
				DEC(bits,8); INC(pos,1);
			END;

		END Patch;

	END Arrangement;

	ModuleList=OBJECT
	VAR
		hash: HashTableIntAny;

		PROCEDURE &Init;
		BEGIN
			NEW(hash,128);
		END Init;

		PROCEDURE ThisModule(module: Modules.Module): HashTableInt;
		VAR modList: HashTableInt;
			any: ANY;

			PROCEDURE TraverseScopes(CONST scope: Modules.ExportDesc; level: SIZE);
			VAR i: SIZE;
			BEGIN
				IF (level > 2) THEN RETURN END;
				IF (scope.fp # 0) THEN
					modList.Put(SIZE(scope.fp), scope.adr)
				END;
				FOR i := 0 TO scope.exports-1 DO
					IF scope.dsc # NIL THEN TraverseScopes(scope.dsc[i],level+1) END;
				END;
			END TraverseScopes;

		BEGIN{EXCLUSIVE}
			IF hash.Has(SYSTEM.VAL(SIZE, module)) THEN
				any := hash.Get(SYSTEM.VAL(SIZE,module));
				modList := any(HashTableInt);
			ELSE
				NEW(modList,256);  TraverseScopes(module.export,0);
				hash.Put(SYSTEM.VAL(SIZE,module), modList);
				RETURN modList
			END;
			RETURN modList;
		END ThisModule;

	END ModuleList;

	Linker = OBJECT (GenericLinker.Linker)
	VAR
		moduleName: ObjectFile.SegmentedName;
		importBlock: GenericLinker.Block;
		hash: HashTableIntAny;

		moduleBlock: ARRAY 32 OF GenericLinker.Block;
		numberModuleBlocks: SIZE;

		PROCEDURE &InitLinkerX* (diagnostics: Diagnostics.Diagnostics; log: Streams.Writer; code, data: GenericLinker.Arrangement; CONST name: ARRAY OF CHAR);
		BEGIN
			ObjectFile.StringToSegmentedName(name, moduleName);
			InitLinker(diagnostics, log, GenericLinker.UseAllButInitCode (* strip init code *), code, data);
			NEW(importBlock);
			NEW(hash,256); (* hash for blocks *)
			numberModuleBlocks := 0;
		END InitLinkerX;

		(* oerwritten functionality of generic linker *)
		PROCEDURE FindBlock*(CONST identifier: ObjectFile.Identifier): GenericLinker.Block;
		VAR block: GenericLinker.Block; any: ANY;
		BEGIN
			IF identifier.fingerprint = 0 THEN (* not identifiable via fingerprint *)
				block := FindBlock^(identifier);
			ELSE
				any := hash.Get(SIZE(identifier.fingerprint));
				IF any # NIL THEN block := any(GenericLinker.Block)  (* local block *) END;
				IF (block # NIL) & (block.identifier.name # identifier.name) THEN (* local block, false or duplicate fingerprint *)
					block := FindBlock^(identifier)
				END;
			END;
			RETURN block;
		END FindBlock;

		PROCEDURE ExportBlock*(block: GenericLinker.Block);
		BEGIN
			IF block.identifier.fingerprint # 0 THEN
				hash.Put(SIZE(block.identifier.fingerprint), block)
			END;
			IF (block.identifier.name[0] >= 0) & (block.identifier.name[1] >= 0)  THEN
				IF (block.identifier.name[1] = InternalModuleName) & (block.identifier.name[2]<0) OR 
				(block.identifier.name[2] = InternalModuleName) & (block.identifier.name[3] < 0) THEN
					moduleBlock[numberModuleBlocks] := block;
					INC(numberModuleBlocks);
				END;
			END;
		END ExportBlock;

		PROCEDURE ImportBlock*(CONST fixup: ObjectFile.Fixup): GenericLinker.Block;
		VAR name: Modules.Name; res: INTEGER;
			msg: ARRAY 128 OF CHAR; module: Modules.Module; adr: ADDRESS; m: HashTableInt;
			s: ObjectFile.SectionName; isModule: BOOLEAN; identifier: ObjectFile.Identifier;
			fp: SIGNED64;

			PROCEDURE CheckName(n: StringPool.Index;  name {UNTRACED}: Modules.DynamicName): INTEGER;
			VAR s: ObjectFile.SectionName; i: SIZE;
			BEGIN
				IF name = NIL THEN RETURN -1 END;
				StringPool.GetString(n, s);
				i := 0;
				WHILE (s[i] # 0X) & (name[i] # 0X) & (s[i] = name[i]) DO
					INC(i);
				END;
				RETURN ORD(s[i]) - ORD(name[i]);
			END CheckName;

			(* stupid implementation: just search for fp in all exports *)
			PROCEDURE CheckScope(CONST scope: Modules.ExportDesc; level: SIZE): ADDRESS;
			VAR adr,lo,hi,m,res: SIZE;
			BEGIN
				adr := 0;
				(* export names are sorted, binary search: *)
				lo := 0; hi := scope.exports-1;
				WHILE (lo <= hi) DO
				 	m := (lo + hi) DIV 2;
					res := CheckName(identifier.name[level], scope.dsc[m].name);
					IF res = 0 THEN
						IF (level = LEN(identifier.name)-1) OR (identifier.name[level+1] <= 0) THEN
							fp := scope.dsc[m].fp;
							RETURN scope.dsc[m].adr
						ELSE
							RETURN CheckScope(scope.dsc[m], level+1);
						END;
					ELSIF res > 0 THEN lo := m+1;
					ELSE hi := m-1;
					END;
				END;
				RETURN 0;
			END CheckScope;


		BEGIN
			identifier := fixup.identifier;

			IF ObjectFile.IsPrefix(moduleName, identifier.name) THEN
				D.String("circular import while trying to fetch ");
				s := identifier.name; D.String(s);
				D.Ln;
				RETURN NIL
			END;

			StringPool.GetString(identifier.name[0], name);
			isModule := identifier.name[1] = InternalModuleName;

			module := Modules.ThisModule(name,res,msg);
			IF module = NIL THEN
				D.String("could not get module while importing "); D.String(name); D.Ln;
				RETURN NIL
			END;
			IF isModule THEN
				adr := SYSTEM.VAL(ADDRESS, module) - fixup.patch[0].displacement;
			ELSE
				m := moduleList.ThisModule(module);
				ASSERT(module # NIL);
				adr := CheckScope(module.export,1(*level*) );
			END;

			IF adr = 0 THEN
				RETURN NIL;
			ELSE (* found *)
				importBlock.identifier.fingerprint := fp; importBlock.address := adr
			END;
			RETURN importBlock
		END ImportBlock;

	END Linker;

VAR
	moduleList: ModuleList;
	InternalModuleName: StringPool.Index;

	PROCEDURE InitData(VAR data: Data);
	BEGIN
		data.address := 0; data.size := 0; data.alignment := 0; data.bytes := NIL;
	END InitData;



	PROCEDURE DoPreallocate(CONST section: ObjectFile.Section; VAR data: Data);
	BEGIN
		ASSERT(section.bits.GetSize() MOD 8 = 0);
		IF section.alignment > 0 THEN
			INC(data.size, (-data.size) MOD section.alignment);
			IF section.alignment > data.alignment THEN
				data.alignment := section.alignment;
			END;
		END;
		INC(data.size, section.bits.GetSize() DIV 8);
	END DoPreallocate;

	PROCEDURE DoAllocate(CONST section: ObjectFile.Section; VAR data: Data): ADDRESS;
	VAR address: ADDRESS; size: SIZE;
	BEGIN
		IF (data.bytes = NIL) OR (LEN(data.bytes) # data.size + data.alignment) THEN
			NEW(data.bytes, data.size + data.alignment);
			data.address := ADDRESSOF(data.bytes[0]);
			IF data.alignment > 0 THEN
				INC(data.address, (-data.address) MOD data.alignment);
			END;
		END;

		IF section.alignment > 0 THEN
			INC(data.address, (-data.address) MOD section.alignment);
		END;

		address := data.address;
		size := section.bits.GetSize();
		section.bits.CopyTo(address, size);
		INC(data.address, size DIV 8);
		RETURN address
	END DoAllocate;

	PROCEDURE LoadObj*(CONST name, fileName: ARRAY OF CHAR;  VAR res: INTEGER; VAR msg: ARRAY OF CHAR): Modules.Module;
	VAR
		file: Files.File; reader: Files.Reader; linker: Linker;
		arrangement: Arrangement; diagnostics: Diagnostics.StreamDiagnostics; stringWriter: Streams.StringWriter;
		module: Modules.Module; heapBlockAdr,moduleAdr: ADDRESS;
		sname: ObjectFile.SectionName;
		Log, debug: Streams.Writer;
		i: SIZE;
	BEGIN
		file := Files.Old(fileName);

		IF file # NIL THEN
			IF TraceLoading THEN Trace.String("loading"); Trace.String(fileName); Trace.Ln END;
			res := Ok; msg[0] := 0X;
			Files.OpenReader(reader, file, 0);
			NEW(arrangement); NEW(stringWriter,256);
			Streams.OpenWriter( Log, KernelLog.Send );
			NEW(diagnostics,Log);
			IF TraceBlocks THEN debug := Log ELSE debug := NIL END;
			NEW(linker, diagnostics, debug, arrangement, arrangement,name);
			IF TraceLoading THEN Trace.String("before linking"); Trace.Ln END;
			GenericLinker.Load (reader, linker);
			IF (linker.offers # NIL) & (LEN(linker.offers) > 1) THEN (* only when several modules in one object file *)
				(* remove all already loaded modules from linker sections *)
				FOR i := 0 TO LEN(linker.offers)-1 DO
					sname := linker.offers[i];
					module := Modules.ModuleByName(sname);
					TRACE(sname, module);
					IF module # NIL THEN
						linker.RemovePrefixed(linker.offers[i]);
					END;
				END;

			END;
			IF ~linker.error THEN linker.EnterBlocks END;
			IF ~linker.error THEN linker.Resolve END;
			IF ~linker.error THEN linker.Link END;
			(*D.Update;*)
			IF ~linker.error THEN
				IF TraceLoading THEN Trace.String("linking done"); Trace.Ln END;
				FOR i := 0 TO linker.numberModuleBlocks-1 DO
					moduleAdr := linker.moduleBlock[i].address;
					#IF ~COOP THEN
						SYSTEM.GET(moduleAdr+2*SIZEOF(ADDRESS)+1*SIZEOF(SIZE), moduleAdr);
						SYSTEM.GET(moduleAdr-2*SIZEOF(ADDRESS), heapBlockAdr);
						ASSERT(heapBlockAdr = linker.moduleBlock[i].address+2*SIZEOF(ADDRESS));
					#END
					module := SYSTEM.VAL(Modules.Module,moduleAdr);
					module.data := arrangement.data.bytes;
					module.code := arrangement.code.bytes;
 					module.sb := 0;
					(*
						careful: when GC uses a heuristic for pointer detection on the stack, it will not
						trace the module because the module is not reachable as a heap block in a sweep
						Therefore the code and data array has to be secured in addition.
						Here this is made sure to enter the module in the data structure before returning it.
					*)
					Modules.Initialize(module);
				END;
				Log.Update;
			ELSE module := NIL; res := LinkerError; stringWriter.Update; stringWriter.Get(msg);

			END;
		ELSE
			res := FileNotFound;  COPY(fileName, msg);  Modules.Append(" not found", msg)
		END;
		IF res # Ok THEN module := NIL END;
		IF (res # Ok) & (res # FileNotFound) THEN D.String(msg);D.Ln END;
		RETURN module
	FINALLY
		res := CommandTrapped;
		RETURN NIL
	END LoadObj;

	PROCEDURE Install*;
	VAR extension: ARRAY 32 OF CHAR;
	BEGIN
		Machine.GetConfig("ObjectFileExtension", extension);
		IF extension = "" THEN
			COPY(Machine.DefaultObjectFileExtension, extension)
		END;
		Modules.AddLoader(extension, LoadObj);
	END Install;

	PROCEDURE Remove*;
	VAR extension: ARRAY 32 OF CHAR;
	BEGIN
		Machine.GetConfig("ObjectFileExtension", extension);
		IF extension = "" THEN
			COPY(Machine.DefaultObjectFileExtension, extension)
		END;
		Modules.RemoveLoader(extension,LoadObj);
	END Remove;

	BEGIN
		Modules.InstallTermHandler(Remove);
		StringPool.GetIndex("@Module",InternalModuleName);
		NEW(moduleList);
		Install;
	END Loader.

