(* ETH Oberon, Copyright 2001 ETH Zuerich Institut fuer Computersysteme, ETH Zentrum, CH-8092 Zuerich.
Refer to the "General ETH Oberon System Source License" contract available at: http://www.oberon.ethz.ch/ *)

MODULE RandomNumbers IN Oberon;	(** portable *)
(* Random Number Generator, page 12 *)
IMPORT SYSTEM, Math IN A2, Oberon;

VAR Z, t, d: SIGNED32;

(** Return a uniform random number r, with 0 < r < 1. *)

PROCEDURE Uniform*(): FLOAT32;
CONST
a = 16807;	m = 2147483647;
q = m DIV a;	r = m MOD a;
VAR g: SIGNED32;
BEGIN
	g := a*(Z MOD q) - r*(Z DIV q);
	IF g > 0 THEN Z := g ELSE Z := g + m END;
	RETURN SHORT(Z*1.0D0/m)	(* must compute this in double precision, e.g. (m-1)/m *)
END Uniform;

(** Return an exponentially distributed random number r. *)

PROCEDURE Exp*(mu: FLOAT32): FLOAT32;
BEGIN
	RETURN -Math.ln(Uniform())/mu
END Exp;

(** Initialize the random number seed. *)

PROCEDURE InitSeed*(seed: SIGNED32);
BEGIN
	Z := seed
END InitSeed;

BEGIN
	Oberon.GetClock(t, d);
	Z := SIGNED32(SET(t) / SET(d))
END RandomNumbers.	(* Copyright M. Reiser, 1992 *)