MODULE RasterPixelFormats; (** AUTHOR "Patrick Hunziker"; PURPOSE "more pixel formats"; *)

IMPORT Raster, SYSTEM;

CONST b = Raster.b; g = Raster.g; r = Raster.r; a = Raster.a;
		yuv422* = 11;

VAR YUV422*: Raster.Format;

	(* xxxInt() version for Integer arithmetic, xxxfloat for float arithmetic*)
	PROCEDURE YUVtoBGRInt(y,u,v: CHAR; VAR b,g,r: CHAR);
	VAR c,d,e: SIGNED32;
	BEGIN
		c:=ORD(y)-16; d:=ORD(u)-128; e:=ORD(v)-128;
		r:=CHR(MAX(0,MIN(255, (298*c + 409*e +128) DIV 256)));
		g:=CHR(MAX(0,MIN(255, (298*c - 100*d -208*e +128) DIV 256)));
		b:=CHR(MAX(0,MIN(255, (298*c + 516*d +128) DIV 256)));
	END YUVtoBGRInt;

	PROCEDURE BGRtoYUVInt(blue,green,red: CHAR; VAR y,u,v: CHAR);
	VAR c,d,e: SIGNED32;
	BEGIN
		y:=CHR((66*ORD(red)+129*ORD(green)+25*ORD(blue)+128) DIV 256 +16);
		u:=CHR((-3866*ORD(red)-74*ORD(green)+112*ORD(blue)+128) DIV 256 +128);
		v:=CHR((112*ORD(red)-94*ORD(green)-18*ORD(blue)+128) DIV 256 +128)
	END BGRtoYUVInt;

	(*! to do: this is inefficient because two adjacent pixels are handled despite their common u and v parts; However, the design of the Raster module renders this mandatory. A direct conversion may help in some cases. *)
	PROCEDURE PackYUV422 (VAR fmt: Raster.Format0; adr: ADDRESS; bit: SIZE; VAR pix: Raster.Pixel);
	VAR y,u,v: CHAR; baseadr:ADDRESS;
	BEGIN
		IF pix[a]#0X THEN
			baseadr:= adr-adr MOD 4; (*y0uy1v data are 32 bits for two adjacent pixels*);
			BGRtoYUVInt(pix[b],pix[g],pix[r], y,u,v);
			IF baseadr=adr THEN (*i.e. first of two pixels*)
				SYSTEM.PUT(baseadr, y);  SYSTEM.PUT(baseadr, u);
			ELSE
				SYSTEM.PUT(baseadr, y);  SYSTEM.PUT(baseadr, v);
			END;
		END;
	END PackYUV422;

	(* YUV422 - 32 bit  pixels with 8 bit Y for two pixel, 8bits U in every second pixel, and 8 bits V in every second pixel *)
	(*! to do: this is inefficient because raw data are read twice for two adjacent pixels. However, the design of the Raster module renders this mandatory. A direct conversion may help in some cases. *)
	PROCEDURE UnpackYUV422 (VAR fmt: Raster.Format0; adr: ADDRESS; bit: SIZE; VAR pix: Raster.Pixel);
		VAR y0,y1,u,v: CHAR; int: SIGNED32; baseadr:ADDRESS;
	BEGIN
		baseadr:= adr-adr MOD 4; (*y0uy1v data are 32 bits for two adjacent pixels*);
		SYSTEM.GET(baseadr, y0); SYSTEM.GET(baseadr+1, u); SYSTEM.GET(baseadr+2, y1); SYSTEM.GET(baseadr+3, v);
		IF baseadr#adr THEN y0:=y1 END; (*second pixel*)
		YUVtoBGRInt(y0,u,v, pix[b], pix[g], pix[r]);
		pix[a] := 0FFX
	END UnpackYUV422;

BEGIN
	Raster.InitFormat(YUV422, yuv422, 16, 2, {Raster.color}, NIL, PackYUV422, UnpackYUV422);
END RasterPixelFormats.


Raster format codes used in video: ( Windows: 'biCompression' constant)
Video compression formats in Windows (FOURCC identifiers) :
    810961203 {3IV0} : result := 'MPEG4-based codec 3ivx';
    827738419 {3IV1} : result := 'MPEG4-based codec 3ivx';
    844515635 {3IV2} : result := 'MPEG4-based codec 3ivx';
   1482049843 {3IVX} : result := 'MPEG4-based codec 3ivx';
   1129529665 {AASC} : result := 'Autodesk Animator codec';
   1381581377 {ABYR} : result := 'Kensington codec';
   1229800769 {AEMI} : result := 'Array VideoONE MPEG1-I Capture';
   1129072193 {AFLC} : result := 'Autodesk Animator FLC (256 color)';
   1229735489 {AFLI} : result := 'Autodesk Animator FLI (256 color)';
   1196444993 {AMPG} : result := 'Array VideoONE MPEG';
   1296649793 {ANIM} : result := 'Intel RDX';
    825512001 {AP41} : result := 'AngelPotion Definitive (hack MS MP43)';
    827740993 {ASV1} : result := 'Asus Video V1';
    844518209 {ASV2} : result := 'Asus Video V2';
   1482052417 {ASVX} : result := 'Asus Video 2.0';
    844256577 {AUR2} : result := 'Aura 2 Codec - YUV 422';
   1095914817 {AURA} : result := 'Aura 1 Codec - YUV 411';
   1245992513 {AVDJ} : result := 'Avid Motion JPEG';
   1314018881 {AVRN} : result := 'Avid Motion JPEG';
   1380997697 {AZPR} : result := 'Quicktime Apple Video';
   1263421762 {BINK} : result := 'Bink Video (RAD Game Tools) (256 color)';
    808604738 {BT20} : result := 'Conexant (ex Brooktree) ProSummer MediaStream';
   1447253058 {BTCV} : result := 'Conexant Composite Video';
   1129731138 {BTVC} : result := 'Conexant Composite Video';
    808539970 {BW10} : result := 'Data Translation Broadway MPEG Capture/Compression';
    842089283 {CC12} : result := 'Intel YUV12 Codec';
   1129727043 {CDVC} : result := 'Canopus DV Codec';
   1128482371 {CFCC} : result := 'Conkrete DPS Perception Motion JPEG';
   1229211459 {CGDI} : result := 'Camcorder Video (MS Office 97)';
   1296123971 {CHAM} : result := 'WinNow Caviara Champagne';
   1196444227 {CJPG} : result := 'Creative Video Blaster Webcam Go JPEG';
   1380600899 {CLJR} : result := 'Cirrus Logic YUV 4:1:1';
   1264143683 {CMYK} : result := 'Common Data Format in Printing';
   1095520323 {CPLA} : result := 'Weitek YUV 4:2:0 Planar';
   1296126531 {CRAM} : result := 'Microsoft Video 1';
   1145656899 {CVID} : result := 'Cinepak by Radius YUV 4:2:2';
   1414289219 {CWLT} : result := 'Microsoft Color WLT DIB';
   1448433987 {CYUV} : result := 'Creative Labs YUV 4:2:2';
   1498765635 {CYUY} : result := 'ATI Technologies YUV';
    825635396 {D261} : result := 'H.261';
    859189828 {D263} : result := 'H.263';
      4344132 {DIB } : result := 'Full Frames (Uncompressed)';
    827738436 {DIV1} : result := 'FFmpeg-4 V1 (hacked MS MPEG-4 V1)';
    844515652 {DIV2} : result := 'FFmpeg-4 V2 (hacked MS MPEG-4 V2)';
    861292868 {DIV3} : result := 'DivX;-) MPEG-4 Low-Motion';
    878070084 {DIV4} : result := 'DivX;-) MPEG-4 Fast-Motion';
    894847300 {DIV5} : result := 'DivX MPEG-4';
    911624516 {DIV6} : result := 'DivX MPEG-4';
   1482049860 {DIVX} : result := 'OpenDivX (DivX 4.0 and later)';
    826428740 {DMB1} : result := 'Matrox Rainbow Runner hardware compression (Motion JPEG)';
    843205956 {DMB2} : result := 'Motion JPEG codec used by Paradigm';
    810766404 {DPS0} : result := 'DPS Reality Motion JPEG';
   1129533508 {DPSC} : result := 'DPS PAR Motion JPEG';
   1146508100 {DSVD} : result := 'Microsoft DirectShow DV';
   1262703940 {DUCK} : result := 'True Motion 1.0';
    892491332 {DV25} : result := 'Matrox DVCPRO codec';
    808801860 {DV50} : result := 'Matrox DVCPRO50 codec';
      4412996 {DVC } : result := 'MainConcept DV Codec';
   1346590276 {DVCP} : result := 'Sony Digital Video (DV)';
    843404868 {DVE2} : result := 'DVE-2 Videoconferencing Codec';
   1145591364 {DVHD} : result := 'DV 1125 lines at 30.00 Hz or 1250 lines at 25.00 Hz';
   1095587396 {DVMA} : result := 'Darim Vision DVMPEG';
    827545156 {DVS1} : result := 'DV compressed in SD (SDL)';
   1146312260 {DVSD} : result := 'Sony Digital Video (DV) 525 lines at 29.97 Hz or 625 lines at 25.00 Hz';
    827872836 {DVX1} : result := 'DVX1000SP Video Decoder';
    844650052 {DVX2} : result := 'DVX2000S Video Decoder';
    861427268 {DVX3} : result := 'DVX3000S Video Decoder';
    808802372 {DX50} : result := 'DivX 5.0 codec';
    827611204 {DXT1} : result := 'DirectX Compressed Texture';
    844388420 {DXT2} : result := 'DirectX Compressed Texture';
    861165636 {DXT3} : result := 'DirectX Compressed Texture';
    877942852 {DXT4} : result := 'DirectX Compressed Texture';
    894720068 {DXT5} : result := 'DirectX Compressed Texture';
   1129601092 {DXTC} : result := 'DirectX Texture Compression';
    810634053 {EKQ0} : result := 'Else graphics card codec';
    810241093 {ELK0} : result := 'Else graphics card codec';
   1446137157 {EM2V} : result := 'Etymonix MPEG-2 I-frame';
   1346589509 {ESCP} : result := 'Eidos Technologies Escape codec';
    827741253 {ETV1} : result := 'eTreppid Video Codec';
    844518469 {ETV2} : result := 'eTreppid Video Codec';
   1129731141 {ETVC} : result := 'eTreppid Video Codec';
   1347046470 {FLJP} : result := 'Field Encoded Motion JPEG (Targa emulation)';
   1096241734 {FRWA} : result := 'Darim Vision Forward Motion JPEG with Alpha-channel';
   1146573382 {FRWD} : result := 'Darim Vision Forward Motion JPEG';
   1415008838 {FRWT} : result := 'Darim Vision Forward Motion JPEG';
   1431786054 {FRWU} : result := 'Darim Vision Forward Uncompressed';
    826693190 {FVF1} : result := 'Fractal Video Frame';
   1464227398 {FVFW} : result := 'ff MPEG-4 based on XviD codec';
   1465535559 {GLZW} : result := 'Motion LZW by gabest@freemail.hu';
   1195724871 {GPEG} : result := 'Motion JPEG by gabest@freemail.hu (with floating point)';
   1414289223 {GWLT} : result := 'Microsoft Greyscale WLT DIB';
    808858184 {H260} : result := 'H.260';
    825635400 {H261} : result := 'H.261';
    842412616 {H262} : result := 'H.262';
    859189832 {H263} : result := 'Intel ITU H.263';
    875967048 {H264} : result := 'H.264';
    892744264 {H265} : result := 'H.265';
    909521480 {H266} : result := 'H.266';
    926298696 {H267} : result := 'H.267';
    943075912 {H268} : result := 'H.268';
    959853128 {H269} : result := 'H.263 for POTS-based videoconferencing';
   1431914056 {HFYU} : result := 'Huffman Lossless Codec YUV and RGB formats (with Alpha-channel)';
   1380142408 {HMCR} : result := 'Rendition Motion Compensation Format';
   1381125448 {HMRR} : result := 'Rendition Motion Compensation Format';
    859189833 {I263} : result := 'Intel ITU H.263';
    808596553 {I420} : result := 'Intel Indeo 4 H.263';
      5128521 {IAN } : result := 'Indeo 4 (RDX) Codec';
   1398161737 {IAVS} : result := 'interleaved audio and video stream';
   1112294217 {ICLB} : result := 'CellB Videoconferencing Codec';
   1380927305 {IGOR} : result := 'Power DVD';
   1196444233 {IJPG} : result := 'Intergraph JPEG';
   1129729097 {ILVC} : result := 'Intel Layered Video';
   1381387337 {ILVR} : result := 'ITU H.263+ Codec';
   1447317577 {IPDV} : result := 'Giga AVI DV Codec';
    825381449 {IR21} : result := 'Intel Indeo 2.1';
   1463898697 {IRAW} : result := 'Intel YUV Uncompressed';
   1448695113 {IUYV} : result := 'Interlaced version of UYVY (line order 0, 2, 4,....,1, 3, 5....)';
    808670793 {IV30} : result := 'Intel Indeo Video 3';
    825448009 {IV31} : result := 'Intel Indeo Video 3.1';
    842225225 {IV32} : result := 'Intel Indeo Video 3.2';
    859002441 {IV33} : result := 'Intel Indeo Video 3.3';
    875779657 {IV34} : result := 'Intel Indeo Video 3.4';
    892556873 {IV35} : result := 'Intel Indeo Video 3.5';
    909334089 {IV36} : result := 'Intel Indeo Video 3.6';
    926111305 {IV37} : result := 'Intel Indeo Video 3.7';
    942888521 {IV38} : result := 'Intel Indeo Video 3.8';
    959665737 {IV39} : result := 'Intel Indeo Video 3.9';
    808736329 {IV40} : result := 'Intel Indeo Video 4.0';
    825513545 {IV41} : result := 'Intel Indeo Video 4.1';
    842290761 {IV42} : result := 'Intel Indeo Video 4.2';
    859067977 {IV43} : result := 'Intel Indeo Video 4.3';
    875845193 {IV44} : result := 'Intel Indeo Video 4.4';
    892622409 {IV45} : result := 'Intel Indeo Video 4.5';
    909399625 {IV46} : result := 'Intel Indeo Video 4.6';
    926176841 {IV47} : result := 'Intel Indeo Video 4.7';
    942954057 {IV48} : result := 'Intel Indeo Video 4.8';
    959731273 {IV49} : result := 'Intel Indeo Video 4.9';
    808801865 {IV50} : result := 'Intel Indeo Video 5.0 Wavelet';
    825514313 {IY41} : result := 'Interlaced version of Y41P (line order 0, 2, 4,....,1, 3, 5....)';
    827677001 {IYU1} : result := '12 bit format used in mode 2 of the IEEE 1394 Digital Camera 1.04 spec';
    844454217 {IYU2} : result := '24 bit format used in mode 2 of the IEEE 1394 Digital Camera 1.04 spec';
   1448433993 {IYUV} : result := 'Intel Indeo iYUV 4:2:0';
   1195724874 {JPEG} : result := 'Still Image JPEG DIB';
   1279742026 {JPGL} : result := 'DIVIO JPEG Light for WebCams';
   1129729355 {KMVC} : result := 'Karl Morton Video Codec';
   1145128268 {LEAD} : result := 'LEAD Video Codec';
   1196444236 {LJPG} : result := 'LEAD Motion JPEG Codec';
   1297503052 {LSVM} : result := 'Vianet Lighting Strike Vmail (Streaming)';
    825635405 {M261} : result := 'Microsoft H.261';
    859189837 {M263} : result := 'Microsoft H.263';
    844313677 {M4S2} : result := 'Microsoft MPEG-4 (hacked MS MPEG-4)';
    842089293 {MC12} : result := 'ATI Motion Compensation Format';
   1296122701 {MCAM} : result := 'ATI Motion Compensation Format';
   1146504269 {MDVD} : result := 'Alex MicroDVD Video (hacked MS MPEG-4)';
   1127369293 {MJ2C} : result := 'Morgan Multimedia JPEG2000 Compression';
   1095780941 {MJPA} : result := 'Pinnacle Motion JPEG with Alpha-channel';
   1112558157 {MJPB} : result := 'Motion JPEG codec';
   1196444237 {MJPG} : result := 'IBM Motion JPEG including Huffman Tables';
   1397050701 {MMES} : result := 'Matrox MPEG-2 I-frame';
    842289229 {MP42} : result := 'Microsoft MPEG-4 V2';
    859066445 {MP43} : result := 'Microsoft MPEG-4 V3';
   1395937357 {MP4S} : result := 'Microsoft MPEG-4 (hacked MS MPEG-4)';
   1446269005 {MP4V} : result := 'Microsoft MPEG-4 (hacked MS MPEG-4)';
   1195724877 {MPEG} : result := 'Chromatic MPEG 1 Video I Frame';
    826757197 {MPG1} : result := 'FFmpeg-1';
    843534413 {MPG2} : result := 'FFmpeg-1';
    860311629 {MPG3} : result := 'Same as Low motion DivX MPEG-4';
    877088845 {MPG4} : result := 'Microsoft MPEG-4 V1';
   1229410381 {MPGI} : result := 'Sigma Design MPEG-1 I-frame';
   1196314701 {MPNG} : result := 'Motion PNG codec';
   1094931021 {MRCA} : result := 'FAST Multimedia MR Codec';
   1162629709 {MRLE} : result := 'Microsoft Run Length Encoding';
    827544397 {MSS1} : result := 'Windows Screen Video';
   1129730893 {MSVC} : result := 'Microsoft Video 1';
   1213879117 {MSZH} : result := 'Lossless codec (ZIP compression)';
    827872333 {MTX1} : result := 'Matrox codec';
    844649549 {MTX2} : result := 'Matrox codec';
    861426765 {MTX3} : result := 'Matrox codec';
    878203981 {MTX4} : result := 'Matrox codec';
    894981197 {MTX5} : result := 'Matrox codec';
    911758413 {MTX6} : result := 'Matrox codec';
    928535629 {MTX7} : result := 'Matrox codec';
    945312845 {MTX8} : result := 'Matrox codec';
    962090061 {MTX9} : result := 'Matrox codec';
    827742029 {MWV1} : result := 'Aware Motion Wavelets';
   1230389582 {NAVI} : result := 'nAVI video codec (hacked MS MPEG-4)';
    808473678 {NT00} : result := 'NewTek LigtWave HDTV YUV with Alpha-channel';
    827216974 {NTN1} : result := 'Nogatech Video Compression 1';
    827741518 {NUV1} : result := 'NuppelVideo';
    810767950 {NVS0} : result := 'Nvidia texture compression format';
    827545166 {NVS1} : result := 'Nvidia texture compression format';
    844322382 {NVS2} : result := 'Nvidia texture compression format';
    861099598 {NVS3} : result := 'Nvidia texture compression format';
    877876814 {NVS4} : result := 'Nvidia texture compression format';
    894654030 {NVS5} : result := 'Nvidia texture compression format';
    810833486 {NVT0} : result := 'Nvidia texture compression format';
    827610702 {NVT1} : result := 'Nvidia texture compression format';
    844387918 {NVT2} : result := 'Nvidia texture compression format';
    861165134 {NVT3} : result := 'Nvidia texture compression format';
    877942350 {NVT4} : result := 'Nvidia texture compression format';
    894719566 {NVT5} : result := 'Nvidia texture compression format';
   1129727056 {PDVC} : result := 'Panasonic DV codec';
   1448494928 {PGVV} : result := 'Radius Video Vision Telecast (adaptive JPEG)';
   1330464848 {PHMO} : result := 'Photomotion';
    827148624 {PIM1} : result := 'Pegasus Imaging codec';
    843925840 {PIM2} : result := 'Pegasus Imaging codec';
   1246579024 {PIMJ} : result := 'Pegasus Imaging PICvideo Lossless JPEG';
   1514493520 {PVEZ} : result := 'Horizons Technology PowerEZ codec';
   1296914000 {PVMM} : result := 'PacketVideo Corporation MPEG-4';
    844584528 {PVW2} : result := 'Pegasus Imaging Wavelet 2000';
    808333649 {Q1.0} : result := 'Q-Team QPEG 1.0';
   1195724881 {QPEG} : result := 'Q-Team QPEG 1.1';
   1363497041 {QPEQ} : result := 'Q-Team QPEG 1.1';
      5718354 {RAW } : result := 'Full Frames (Uncompressed)';
      4343634 {RGB } : result := 'Full Frames (Uncompressed)';
   1094862674 {RGBA} : result := 'Raw RGB with alpha';
   1413629778 {RGBT} : result := 'Uncompressed RGB with transparency';
    876956754 {RLE4} : result := 'Run length encoded 4bpp RGB image';
    944065618 {RLE8} : result := 'Run length encoded 8bpp RGB image';
      4541522 {RLE } : result := 'Raw RGB with arbitrary sample packing within a pixel';
    877677906 {RMP4} : result := 'REALmagic MPEG-4 Video Codec';
   1096437842 {RPZA} : result := 'Apple Video 16 bit "road pizza"';
    825381970 {RT21} : result := 'Intel Real Time Video 2.1';
    809784658 {RUD0} : result := 'Rududu video codec';
    808539730 {RV10} : result := 'RealVideo codec';
    858871378 {RV13} : result := 'RealVideo codec';
    808605266 {RV20} : result := 'RealVideo G2';
    808670802 {RV30} : result := 'RealVideo 8';
      5789266 {RVX } : result := 'Intel RDX';
    842150995 {S422} : result := 'VideoCap C210 YUV Codec';
   1128481875 {SDCC} : result := 'Sun Digital Camera Codec';
   1129137747 {SFMC} : result := 'Crystal Net SFM Codec';
   1196444243 {SJPG} : result := 'White Pine (ex Paradigm Matrix) Motion JPEG';
      4410707 {SMC } : result := 'Apple Graphics (SMC) codec (256 color)';
   1129532755 {SMSC} : result := 'Radius proprietary codec';
   1146309971 {SMSD} : result := 'Radius proprietary codec';
   1448299859 {SMSV} : result := 'WorldConnect Wavelet Streaming Video';
   1195987027 {SPIG} : result := 'Radius Spigot';
   1129074771 {SPLC} : result := 'Splash Studios ACM Audio Codec';
    844779859 {SQZ2} : result := 'Microsoft VXTreme Video Codec V2';
   1096176723 {STVA} : result := 'ST CMOS Imager Data (Bayer)';
   1112953939 {STVB} : result := 'ST CMOS Imager Data (Nudged Bayer)';
   1129731155 {STVC} : result := 'ST CMOS Imager Data (Bunched)';
   1482052691 {STVX} : result := 'ST CMOS Imager Data (Extended)';
   1498829907 {STVY} : result := 'ST CMOS Imager Data (Extended with Correction Data)';
    808539731 {SV10} : result := 'Sorenson Media Video R1';
    827414099 {SVQ1} : result := 'Sorenson Video (Apple Quicktime 3)';
    860968531 {SVQ3} : result := 'Sorenson Video 3 (Apple Quicktime 5)';
    808596564 {T420} : result := 'Toshiba YUV 4:2:0';
   1397574740 {TLMS} : result := 'TeraLogic Motion Infraframe Codec A';
   1414745172 {TLST} : result := 'TeraLogic Motion Infraframe Codec B';
    808602964 {TM20} : result := 'Duck TrueMotion 2.0';
   1093815636 {TM2A} : result := 'Duck TrueMotion Archiver 2.0';
   1479691604 {TM2X} : result := 'Duck TrueMotion 2X';
   1128877396 {TMIC} : result := 'TeraLogic Motion Intraframe Codec 2';
   1414483284 {TMOT} : result := 'TrueMotion Video Compression';
    808604244 {TR20} : result := 'Duck TrueMotion RT 2.0';
   1128485716 {TSCC} : result := 'TechSmith Screen Capture Codec';
    808539732 {TV10} : result := 'Tecomac Low-Bit Rate Codec';
   1246582356 {TVMJ} : result := 'Field Encoded Motion JPEG (Targa emulation)';
   1311791444 {TY0N} : result := 'Trident Decompression Driver';
   1127373140 {TY2C} : result := 'Trident Decompression Driver';
   1311922516 {TY2N} : result := 'Trident Decompression Driver';
    859189845 {U263} : result := 'UB Video StreamForce H.263';
   1146045269 {UCOD} : result := 'ClearVideo (fractal compression-based codec)';
   1230261333 {ULTI} : result := 'IBM Corp. Ultimotion';
   1447975253 {UYNV} : result := 'A direct copy of UYVY registered by NVidia to work around problems in some old codecs which did not like hardware which offered more than 2 UYVY surfaces';
   1347836245 {UYVP} : result := 'YCbCr 4:2:2 extended precision 10-bits per component in U0Y0V0Y1 order';
   1498831189 {UYVY} : result := 'YUV 4:2:2 (Y sample at every pixel, U and V sampled at every second pixel horizontally on each line)';
    825635414 {V261} : result := 'Lucent VX2000S';
    842150998 {V422} : result := 'Vitec Multimedia YUV 4:2:2 as for UYVY but with different component ordering within the u_int32 macropixel';
    892679766 {V655} : result := 'Vitec Multimedia 16 bit YUV 4:2:2 (6:5:5) format';
    827474774 {VCR1} : result := 'ATI VCR 1.0';
    844251990 {VCR2} : result := 'ATI VCR 2.0 (MPEG YV12)';
    861029206 {VCR3} : result := 'ATI VCR 3.0';
    877806422 {VCR4} : result := 'ATI VCR 4.0';
    894583638 {VCR5} : result := 'ATI VCR 5.0';
    911360854 {VCR6} : result := 'ATI VCR 6.0';
    928138070 {VCR7} : result := 'ATI VCR 7.0';
    944915286 {VCR8} : result := 'ATI VCR 8.0';
    961692502 {VCR9} : result := 'ATI VCR 9.0';
   1413694550 {VDCT} : result := 'Video Maker Pro DIB';
   1297040470 {VDOM} : result := 'VDOnet VDOWave';
   1464812630 {VDOW} : result := 'VDOLive (H.263)';
   1515471958 {VDTZ} : result := 'Darim Vision VideoTizer YUV';
   1481656150 {VGPX} : result := 'Alaris VGPixel Codec';
   1396984150 {VIDS} : result := 'Vitec Multimedia YUV 4:2:2 codec';
   1346783574 {VIFP} : result := 'Virtual Frame API codec (VFAPI)';
    827738454 {VIV1} : result := 'Vivo H.263';
    844515670 {VIV2} : result := 'Vivo H.263';
   1331054934 {VIVO} : result := 'Vivo H.263';
   1280854358 {VIXL} : result := 'miroVideo XL';
    827739222 {VLV1} : result := 'VideoLogic codec';
    808669270 {VP30} : result := 'On2 (ex Duck TrueMotion) VP3';
    825446486 {VP31} : result := 'On2 (ex Duck TrueMotion) VP3';
   1261525078 {VX1K} : result := 'Lucent VX1000S Video Codec';
   1261590614 {VX2K} : result := 'Lucent VX2000S Video Codec';
   1347639382 {VXSP} : result := 'Lucent VX1000SP Video Codec';
   1129726551 {WBVC} : result := 'Winbond W9960 codec';
   1296123991 {WHAM} : result := 'Microsoft Video 1';
   1481525591 {WINX} : result := 'Winnov Software Compression';
   1196444247 {WJPG} : result := 'Winbond JPEG';
    827739479 {WMV1} : result := 'Windows Media Video 7';
    844516695 {WMV2} : result := 'Windows Media Video 8';
    861293911 {WMV3} : result := 'Windows Media Video 9';
    827739735 {WNV1} : result := 'WinNow Videum Hardware Compression';
    859189848 {X263} : result := 'Xirlink H.263';
    810962008 {XLV0} : result := 'NetXL Inc. XL Video Decoder';
   1196445016 {XMPG} : result := 'XING MPEG (I frame only)';
   1145656920 {XVID} : result := 'XviD MPEG-4 codec';
    825307737 {Y211} : result := 'Packed YUV format with Y sampled at every second pixel across each line and U and V sampled at every fourth pixel';
    825308249 {Y411} : result := 'YUV 4:1:1 Packed';
   1110520921 {Y41B} : result := 'YUV 4:1:1 Planar';
   1345401945 {Y41P} : result := 'Conexant (ex Brooktree) YUV 4:1:1 Raw';
   1412510809 {Y41T} : result := 'Format as for Y41P but the lsb of each Y component is used to signal pixel transparency';
    842151001 {Y422} : result := 'Direct copy of UYVY as used by ADS Technologies Pyro WebCam firewire camera';
   1110586457 {Y42B} : result := 'YUV 4:2:2 Planar';
   1412576345 {Y42T} : result := 'Format as for UYVY but the lsb of each Y component is used to signal pixel transparency';
    808466521 {Y800} : result := 'Simple grayscale video';
    536885337 {Y8  } : result := 'Simple grayscale video';
    842089305 {YC12} : result := 'Intel YUV12 Codec';
   1447974233 {YUNV} : result := 'A direct copy of YUY2 registered by NVidia to work around problems in some old codecs which did not like hardware which offered more than 2 YUY2 surfaces';
    945182041 {YUV8} : result := 'Winnov Caviar YUV8';
    961959257 {YUV9} : result := 'Intel YUV9';
   1347835225 {YUVP} : result := 'YCbCr 4:2:2 extended precision 10-bits per component in Y0U0Y1V0 order';
    844715353 {YUY2} : result := 'YUV 4:2:2 as for UYVY but with different component ordering within the u_int32 macropixel';
   1448695129 {YUYV} : result := 'Canopus YUV format';
    842094169 {YV12} : result := 'ATI YVU12 4:2:0 Planar';
    961893977 {YVU9} : result := 'Brooktree YVU9 Raw (YVU9 Planar)';
   1431918169 {YVYU} : result := 'YUV 4:2:2 as for UYVY but with different component ordering within the u_int32 macropixel';
   1112099930 {ZLIB} : result := 'Lossless codec (ZIP compression)';
   1195724890 {ZPEG} : result := 'Metheus Video Zipper';
else
   result := W_STR_07;

