MODULE UCS32Strings; (** AUTHOR "be,tf, staubesv"; PURPOSE "String functions" *)

IMPORT Streams, Dates, RC := RealConversions, UCS32, ASCIIStrings := Strings;

CONST
	Ok* = 0;

TYPE
	String* = UCS32.PStringJQ;

	StringArray* = POINTER TO ARRAY OF String;

VAR
	DateFormat*, TimeFormat*: ARRAY 32 OF UCS32.CharJQ;	(** date and time format strings used by DateToStr/TimeToStr *)


CONST
	(* Maks dlina kodirovki pravilqnojj bukvy = 6 + 1 dlja #0 *)
	oldBytesBufferSize* = 7;


TYPE

	(* Buffer - объект, предоставляющий Streams.Writer, в который можно что-нибудь писать, неограниченной длины. 
	Накапливает свой результат в виде в виде строки в формате UCS32, результат можно получить с помощью GetString *)
	Buffer* = OBJECT
	VAR length : SIZE;
		data : UCS32.PStringJQ;
		oldBytes : ARRAY oldBytesBufferSize OF CHAR;
		nofOldBytes : SIGNED32;
		w : Streams.Writer;

		PROCEDURE &Init*(initialSize : SIZE);
		BEGIN
			IF initialSize < 256 THEN initialSize := 256 END;
			NEW(data, initialSize); length := 0;
		END Init;


		(* При правках тут ищи слово AddUTF8BufferCut *)
		PROCEDURE Add(CONST buf: ARRAY OF CHAR; ofs, len: SIZE; propagate: BOOLEAN; VAR res: INTEGER);
		VAR
			p, i, idx : SIZE;
			sledujushajaBukvaDljaKopirovanijaVOldBytes : SIZE;
			codeLength : CHAR;
			pieceOffset, pieceLength: SIZE;
			
			zaPoslednjujuUTFBukvuOldBytesProchitano : SIZE;
			ucs32buf : UCS32.PStringJQ;




		PROCEDURE SendThisBuffer; 
		VAR i,j : SIZE; n : UCS32.PStringJQ;
		BEGIN
			IF length + len + 1 >= LEN(data) THEN
				NEW(n, LEN(data) * 2 + len + 1); FOR i := 0 TO length - 1 DO n[i] := data[i] END;
				data := n
			END;
			WHILE len > 0 DO
				data[length] := ucs32buf[j];
				INC(j); 
				INC(length); DEC(len)
			END;
			data[length] := UCS32.IntToCharJQ(0);
		END SendThisBuffer;

	
		PROCEDURE DobavqVOldBytes;
		VAR j : SIZE;
		BEGIN
		INC(nofOldBytes, -zaPoslednjujuUTFBukvuOldBytesProchitano);
		(* ischerpali nachalqnoe soderzhimoe OldBytes? *)
		IF nofOldBytes <= 0 THEN 
			(* chastq bajjt dlja poslednejj bukvy vzjata iz novogo kuska byla izraskhodovana - uchtjom ehto *)
			p := p - nofOldBytes;
			RETURN 
		END;
		(* sdvinem bukvy k nachalu *)
		FOR j := 0 TO oldBytesBufferSize - 1 - zaPoslednjujuUTFBukvuOldBytesProchitano DO
			oldBytes[j] := oldBytes[j + zaPoslednjujuUTFBukvuOldBytesProchitano] END;
		(* dobavim novye bukvy do polnogo bufera iz novogo kuska, esli oni voobshe estq *)
		FOR j := oldBytesBufferSize - zaPoslednjujuUTFBukvuOldBytesProchitano TO oldBytesBufferSize - 1 DO
			IF sledujushajaBukvaDljaKopirovanijaVOldBytes >= pieceOffset + pieceLength THEN
				oldBytes[j] := 0X; 
			ELSE
				oldBytes[j] := buf[sledujushajaBukvaDljaKopirovanijaVOldBytes] END;
			INC(sledujushajaBukvaDljaKopirovanijaVOldBytes) END END DobavqVOldBytes;
			

		BEGIN
			pieceOffset := ofs; pieceLength := len;

			IF (ucs32buf = NIL) OR (pieceLength >= LEN(ucs32buf)) THEN NEW(ucs32buf, pieceLength + 1) END;
			p := pieceOffset; idx := 0;
			(* complete an unfinished character *)
			
			(* chitaem s pomoshhju starykh bajjt, poka ne vyberemsja *)
			p := sledujushajaBukvaDljaKopirovanijaVOldBytes;
			LOOP
				IF nofOldBytes <= 0 THEN 
					(* mozhno nachinatq chitatq uzhe v osnovnom bufere *)
					EXIT END;
				i := 0;
				IGNORE UCS32.UTF8CharJQIzMassiva(oldBytes, i, ucs32buf[idx]);
				(* IGNORE UTF8Strings.DecodeChar(oldBytes, i, ucs32buf[idx]); *)
				INC(idx);
				zaPoslednjujuUTFBukvuOldBytesProchitano := i;
				DobavqVOldBytes() END;

			(* chitaem sam bufer *)					
			LOOP
				IF p >= pieceOffset + pieceLength THEN EXIT END;
				codeLength := UCS32.CodeLength[ORD(buf[p])];
				IF (codeLength = UCS32.CodeLengthBad) OR (p + ORD(codeLength) <= pieceOffset+pieceLength) THEN 
					(* Trace.String("About to decode char starting from "); Trace.Int(ORD(buf[p]),0); Trace.Ln; *)
					IGNORE UCS32.UTF8CharJQIzMassiva(buf, p, ucs32buf[idx]);
					(* IGNORE UTF8Strings.DecodeChar(buf, p, ucs32buf[idx]); *)
					(* Trace.String("Obtained ucs32 char: "); Trace.Int(ucs32buf[idx],0); Trace.Ln; *)
					INC(idx)
				ELSE
					(* ne smozhem dochitatq bukvu - polozhim v nofOldBytes *) 
					EXIT END END;
			ucs32buf[idx] := UCS32.IntToCharJQ(0);

			(* v konce bufera ostalosq menee odnojq pravilqnojj bukvy ili chto-to nepravilqnoe *)
			i := 0;
			WHILE p < pieceOffset+pieceLength  DO oldBytes[i] := buf[p]; INC(p); INC(i) END;
			nofOldBytes := i;
			(* IF i > 0 THEN HALT(880) END; vpervye zdesq *)
			ASSERT(nofOldBytes < oldBytesBufferSize - 1);

			SendThisBuffer;
		END Add;

		(* remove last n characters *)
		PROCEDURE Shorten*(n : SIZE);
		BEGIN
			DEC(length, n);
			IF length < 0 THEN length := 0 END;
			IF length > 0 THEN data[length - 1] := UCS32.IntToCharJQ(0); ELSE data[length] := UCS32.IntToCharJQ(0); END
		END Shorten;

		PROCEDURE Clear*;
		BEGIN
			data[0] := UCS32.IntToCharJQ(0);
			length := 0;
			nofOldBytes := 0 END Clear;

		PROCEDURE GetWriter*() : Streams.Writer;
		BEGIN
			IF w = NIL THEN NEW(w, SELF.Add, 256) END;
			RETURN w
		END GetWriter;

		PROCEDURE GetLength*() : SIZE;
		BEGIN
			IF w # NIL THEN w.Update END;
			RETURN length
		END GetLength;


		PROCEDURE GetString*() : UCS32.PStringJQ;
		BEGIN
			IF w # NIL THEN w.Update END;
			RETURN data
		END GetString;
		
		PROCEDURE Write*(out : Streams.Writer);
		BEGIN
			IF w # NIL THEN w.Update END;
			out.UCS32StringJQvUTF8(data^);
		END Write;
		

	END Buffer;



	(** The stringmaker creates an automatically growing character array from the input with an Streams writer *)
(* 	Buffer* = OBJECT
	VAR
		length : SIZE;
		data : String;
		w : Streams.Writer;

		PROCEDURE &Init*(initialSize : SIZE);
		BEGIN
			IF initialSize < 16 THEN initialSize := 256 END;
			NEW(data, initialSize); length := 0;
		END Init;

		PROCEDURE Add*(CONST buf: UCS32.StringJQ; ofs, len: SIZE; propagate: BOOLEAN; VAR res: INTEGER);
		VAR newSize, i : SIZE; n : String;
		BEGIN
			IF length + len + 1 >= LEN(data) THEN
				newSize := MAX(LEN(data) * 2, length + len + 1);
				NEW(n, newSize);
				FOR i := 0 TO length - 1 DO n[i] := data[i] END;
				data := n;
			END;
			WHILE len > 0 DO
				data[length] := buf[ofs];
				INC(ofs); INC(length); DEC(len);
			END;
			data[length] := UCS32.IntToCharJQ(0);
			res := Ok;
		END Add;

		(** resets the length of the string to 0. The buffer is reused*)
		PROCEDURE Clear*;
		BEGIN
			data[0] := UCS32.IntToCharJQ(0);
			length := 0
		END Clear;

		(** returns an Streams.Writer to the string *)
		PROCEDURE GetWriter*() : Streams.Writer;
		BEGIN
			IF w = NIL THEN NEW(w, SELF.Add, 256) END;
			RETURN w
		END GetWriter;

		(** returns the number of bytes written to the string. The Streams.Writer is updated *)
		PROCEDURE GetLength*() : SIZE;
		BEGIN
			IF w # NIL THEN w.Update END;
			RETURN length
		END GetLength;

		(** returns the current string buffer. If the string maker is reused, the content of the string may or may not
			vary. The application might need to copy the returned string. The Streams.Writer is updated *)
		PROCEDURE GetString*() : String;
		BEGIN
			IF w # NIL THEN w.Update END;
			RETURN data
		END GetString;

		PROCEDURE Write*(out : Streams.Writer);
		BEGIN
			IF w # NIL THEN w.Update END;
			out.Bytes(data^, 0, length)
		END Write;

	END Buffer; *)

	OPERATOR "+"*( a: String; CONST b: UCS32.StringJQ ): String;
	VAR str: String;
	BEGIN
		NEW( str, LEN( a ) + Length( b ) );
		UCS32.COPYJQvJQ( a^, str^ );  Append( str^, b );
		RETURN str
	END "+";

	OPERATOR "+"*( a: String; b: UCS32.CharJQ ): String;
	VAR str: String;
	BEGIN
		NEW( str, LEN( a ) + 1 );
		UCS32.COPYJQvJQ( a^, str^ );  AppendChar( str^, b );
		RETURN str
	END "+";

	OPERATOR "+"*( a, b: String ): String;
	VAR str: String;
	BEGIN
		NEW( str, LEN( a ) + LEN( b ) );
		UCS32.COPYJQvJQ( a^, str^ );  Append( str^, b^ );
		RETURN str
	END "+";

	OPERATOR "+"*( a: String; b: SIGNED64 ): String;
	VAR
		digits: ARRAY 32 OF UCS32.CharJQ;
		str: String;
	BEGIN
		IntToStr( b, digits );
		NEW( str, LEN( a ) + Length( digits ) );
		UCS32.COPYJQvJQ( a^, str^ );  Append( str^, digits );
		RETURN str
	END "+";

	OPERATOR "+"*( a: String; b: FLOAT64 ): String;
	VAR
		digits: ARRAY 32 OF UCS32.CharJQ;
		str: String;
	BEGIN
		RC.RealToUCS32StringJQ( b, 18, digits );
		NEW( str, LEN( a ) + Length( digits ) );
		UCS32.COPYJQvJQ( a^, str^ );  Append( str^, digits );
		RETURN str
	END "+";
	


(** string handling *)

(** returns the length of a string *)
PROCEDURE Length* (CONST string: UCS32.StringJQ): SIZE;
VAR len: SIZE;
BEGIN
	len := 0; WHILE (string[len] # UCS32.IntToCharJQ(0)) DO INC(len) END;
	RETURN len
END Length;

(** Find position of character, returns -1 if not found*)
PROCEDURE Find* (CONST string: UCS32.StringJQ; pos: SIZE; ch: UCS32.CharJQ): SIZE;
BEGIN
	WHILE (string[pos] # UCS32.IntToCharJQ(0) ) & (string[pos] # ch) DO INC(pos) END;
	IF string[pos] = UCS32.IntToCharJQ(0) THEN pos := -1 END;
	RETURN pos
END Find;

(** returns the number of occurences of ch within string *)
PROCEDURE Count* (CONST string: UCS32.StringJQ; ch: UCS32.CharJQ): SIZE;
VAR count, pos: SIZE;
BEGIN
	count := 0; pos := Find (string, 0, ch);
	WHILE pos # -1 DO INC (count); pos := Find (string, pos + 1, ch) END;
	RETURN count
END Count;

(** truncates string to length *)
PROCEDURE Truncate* (VAR string: UCS32.StringJQ; length: SIZE);
BEGIN
	IF LEN(string) > length THEN string[length] := UCS32.IntToCharJQ(0) END;
END Truncate;

(**
 * Returns the position of the first occurrence of pattern in the string or -1 if no occurrence is found.
 * Rabin-Karp algorithm, adopted from Sedgewick.
 *)
PROCEDURE Pos*(CONST pattern, string: UCS32.StringJQ): SIZE;
CONST
	q = 8204957;	(* prime number, {(d+1) * q <= MAX(SIGNED32)} *)
	d = 256;			(* number of different characters *)
VAR h1, h2, dM: SIGNED32; i, j, m, n: SIZE; found : BOOLEAN;
BEGIN
	m := Length(pattern); n := Length(string);
	IF (m > n) THEN RETURN -1 END;

	dM := 1; FOR i := 0 TO m-2 DO dM := (d*dM) MOD q END;
	h1 := 0; FOR i := 0 TO m-1 DO h1 := (h1*d + UCS32.UCS32CharCodeFnSIGNED16(pattern[i])) MOD q END;
	h2 := 0; FOR i := 0 TO m-1 DO h2 := (h2*d + UCS32.UCS32CharCodeFnSIGNED16(string[i])) MOD q END;
	i := 0; found := FALSE;

	IF (h1 = h2) THEN (* verify *)
		j := 0; found := TRUE;
		WHILE (j < m) DO
			IF (string[j] # pattern[j]) THEN found := FALSE; j := m; END; (* hash values are equal, but strings are not *)
			INC(j);
		END;
	END;

	WHILE ~found & (i < n-m) DO
		h2 := (h2 + d*q - UCS32.UCS32CharCodeFnSIGNED16(string[i])*dM) MOD q;
		h2 := (h2*d + UCS32.UCS32CharCodeFnSIGNED16(string[i+m])) MOD q;
		INC(i);

		IF (h1 = h2) THEN (* verify *)
			j := 0; found := TRUE;
			WHILE (j < m) DO
				IF (string[i + j] # pattern[j]) THEN found := FALSE; j := m; END; (* hash values are equal, but strings are not *)
				INC(j);
			END
		END;
	END;

	IF found THEN
		RETURN i;
	ELSE
		RETURN -1
	END
END Pos;

(** More generic version of Pos. Basically the same search algorithm, but can also perform case-insensitive searching and/or
 * backwards directed searching.
 * Returns the position of the first character of the first occurence of 'pattern' in 'text'  in search direction or -1 if pattern not found *)
PROCEDURE GenericPos*(CONST pattern: UCS32.StringJQ; from : SIZE; CONST string: UCS32.StringJQ; ignoreCase, backwards : BOOLEAN): SIZE;
CONST
	q = 8204957;	(* prime number, {(d+1) * q <= MAX(SIGNED32)} *)
	d = 256;			(* number of different characters *)
VAR ch, chp : UCS32.CharJQ; h1, h2, dM: SIGNED32; i, j, patternLength, stringLength: SIZE; found : BOOLEAN;
BEGIN
	patternLength := Length(pattern); stringLength := Length(string);

	(* check whether the search pattern can be contained in the text regarding the search direction *)
	IF backwards THEN
		IF (patternLength > from + 1) THEN RETURN -1; END;
	ELSE
		IF (from + patternLength > stringLength) THEN RETURN -1; END;
	END;

	dM := 1; FOR i := 0 TO patternLength-2 DO dM := (d*dM) MOD q END;

	(* calculate hash value for search pattern string *)
	h1 := 0; FOR i := 0 TO patternLength-1 DO
		IF backwards THEN
			ch := pattern[patternLength-1-i];
		ELSE
			ch := pattern[i];
		END;
		IF ignoreCase THEN UpperCaseChar(ch); END;
		h1 := (h1*d + UCS32.UCS32CharCodeFnSIGNED16(ch)) MOD q;
	END;

	(* calculate hash value for the first 'patternLength' characters of the text to be searched *)
	h2 := 0; FOR i := 0 TO patternLength-1 DO
		IF backwards THEN
			ch := string[from - i];
		ELSE
			ch := string[from + i];
		END;
		IF ignoreCase THEN UpperCaseChar(ch); END;
		h2 := (h2*d + UCS32.UCS32CharCodeFnSIGNED16(ch)) MOD q;
	END;

	i := from; found := FALSE;

	IF (h1 = h2) THEN (* Hash values match, compare strings *)
		j := 0; found := TRUE;
		WHILE (j < patternLength) DO
			ch := string[from + j];
			chp := pattern[j];
			IF ignoreCase THEN UpperCaseChar(ch); UpperCaseChar(chp); END;
			IF (ch # chp) THEN found := FALSE; j := patternLength; END; (* hash values are equal, but strings are not *)
			INC(j);
		END;
	END;

	LOOP
		(* check wether we're finished *)
		IF found THEN EXIT; END;
		IF backwards THEN
			IF (i < patternLength) THEN EXIT; END;
		ELSE
			IF (i >= stringLength-patternLength) THEN EXIT; END;
		END;

		(* remove last character from hash value *)
		ch := string[i];
		IF ignoreCase THEN UpperCaseChar(ch); END;
		h2 := (h2 + d*q - UCS32.UCS32CharCodeFnSIGNED16(ch)*dM) MOD q;

		(* add next character to hash value *)
		IF backwards THEN
			ch := string[i-patternLength];
		ELSE
			ch := string[i+patternLength];
		END;
		IF ignoreCase THEN UpperCaseChar(ch); END;
		h2 := (h2*d + UCS32.UCS32CharCodeFnSIGNED16(ch)) MOD q;

		IF backwards THEN DEC(i); ELSE INC(i); END;

		IF (h1 = h2) THEN (* verify *)
			j := 0; found := TRUE;
			WHILE (j < patternLength) DO
				IF backwards THEN
					ch := string[i - patternLength + 1 + j];
				ELSE
					ch := string[i + j];
				END;
				chp := pattern[j];
				IF ignoreCase THEN UpperCaseChar(ch); UpperCaseChar(chp); END;
				IF (ch # chp) THEN found := FALSE; j := patternLength; END; (* hash values are equal, but strings are not *)
				INC(j);
			END
		END;
	END;

	IF found THEN
		IF backwards THEN RETURN i - patternLength + 1;
		ELSE RETURN i;
		END;
	ELSE
		RETURN -1;
	END;
END GenericPos;

(** Simple pattern matching with support for "*" and "?" wildcards  - returns TRUE if name matches mask. Patent pending ;-) *)
PROCEDURE Match*(CONST mask, name: UCS32.StringJQ): BOOLEAN;
VAR m,n, om, on: SIZE; f: BOOLEAN;
BEGIN
	m := 0; n := 0; om := -1;
	f := TRUE;
	LOOP
		IF (mask[m] = UCS32.CHARvCharJQ("*")) THEN
			om := m; INC(m);
			WHILE (name[n] # UCS32.IntToCharJQ(0)) & (name[n] # mask[m]) DO INC(n) END;
			on := n
		ELSIF (mask[m] = UCS32.CHARvCharJQ("?")) THEN
			IF (name[n] = UCS32.IntToCharJQ(0)) THEN f := FALSE; EXIT END;
			INC(m); INC(n)
		ELSE
			IF (mask[m] # name[n]) THEN
				IF (om = -1) THEN f := FALSE; EXIT
				ELSIF (name[n] # UCS32.IntToCharJQ(0)) THEN (* try the next position *)
					m := om; n := on + 1;
					IF (name[n] = UCS32.IntToCharJQ(0)) THEN f := FALSE; EXIT END
				ELSE
					f := FALSE; EXIT
				END
			ELSE INC(m); INC(n)
			END
		END;
		IF (mask[m] = UCS32.IntToCharJQ(0)) & ((name[n] = UCS32.IntToCharJQ(0)) OR (om=-1)) THEN EXIT END
	END;
	RETURN f & (name[n] = UCS32.IntToCharJQ(0))
END Match;

(** copies src[soff ... soff + len - 1] to dst[doff ... doff + len - 1] *)
PROCEDURE Move* (CONST src: UCS32.StringJQ; soff, len: SIZE; VAR dst: UCS32.StringJQ; doff: SIZE);
BEGIN
	(* reverse copy direction in case src and dst denote the same string *)
	IF soff < doff THEN
		INC (soff, len - 1); INC (doff, len - 1);
		WHILE len > 0 DO dst[doff] := src[soff]; DEC (soff); DEC (doff); DEC (len) END
	ELSE
		WHILE len > 0 DO dst[doff] := src[soff]; INC (soff); INC (doff); DEC (len) END
	END;
END Move;

(** concatenates s1 and s2: s := s1 || s2 *)
PROCEDURE Concat* (CONST s1, s2: UCS32.StringJQ; VAR s: UCS32.StringJQ);
VAR len1, len2 : SIZE;
BEGIN
	len1 := Length (s1); len2 := Length (s2);
	Move(s2, 0, len2, s, len1);
	Move (s1, 0, len1, s, 0);
	Truncate (s, len1 + len2);
END Concat;

(** concatenates s1 and s2: s := s1 || s2. The resulting string is truncated to the length of s if necessary *)
PROCEDURE ConcatX*(CONST s1, s2 : UCS32.StringJQ; VAR s : UCS32.StringJQ);
VAR len1, len2 : SIZE;
BEGIN
	len1 := Length (s1); len2 := Length (s2);
	IF (len1 + 1 >= LEN(s)) THEN
		UCS32.COPYJQvJQ(s1, s);
	ELSE
		IF (len1 + len2 + 1 > LEN(s)) THEN
			len2 := LEN(s) - 1 - len1;
		END;
		Move(s2, 0, len2, s, len1);
		Move (s1, 0, len1, s, 0);
		Truncate (s, len1 + len2);
	END;
END ConcatX;

(** appends appendix to s: s := s || appendix *)
PROCEDURE Append* (VAR s: UCS32.StringJQ; CONST appendix: UCS32.StringJQ);
BEGIN Concat (s, appendix, s)
END Append;

(** appends appendix to s: s := s || appendix. The resulting string is truncated to the length of s if necessary *)
PROCEDURE AppendX* (VAR s: UCS32.StringJQ; CONST appendix: UCS32.StringJQ);
BEGIN ConcatX (s, appendix, s)
END AppendX;

(** appends an integer number to a string *)
PROCEDURE AppendInt*(VAR s: UCS32.StringJQ; num: SIGNED64);
VAR number: ARRAY 21 OF UCS32.CharJQ;
BEGIN
	IntToStr(num,number); Append(s,number);
END AppendInt;

(** appends a character to a string s := s || char *)
PROCEDURE AppendChar*(VAR s: UCS32.StringJQ; ch: UCS32.CharJQ);
VAR cs: ARRAY 2 OF UCS32.CharJQ;
BEGIN
	cs[0] := ch; Append(s,cs);
END AppendChar;

(** copies src[index ... index + len-1] to dst *)
PROCEDURE Copy* (CONST src: UCS32.StringJQ; index, len: SIZE; VAR dst: UCS32.StringJQ);
BEGIN
	Move (src, index, len, dst, 0);
	Truncate (dst, len);
END Copy;

(** deletes positions index ... index + count - 1 from 's' *)
PROCEDURE Delete* (VAR s: UCS32.StringJQ; index, count: SIZE);
VAR len: SIZE;
BEGIN
	len := Length (s);
	Move (s, index + count, len - index - count, s, index);
	Truncate (s, len - count);
END Delete;

(** inserts 'src' at position 'index' into 'dst' *)
PROCEDURE Insert* (CONST src: UCS32.StringJQ; VAR dst: UCS32.StringJQ; index: SIZE);
VAR slen, dlen: SIZE;
BEGIN
	slen := Length (src); dlen := Length (dst);
	Move (dst, index, dlen-index, dst, index+slen);
	Move (src, 0, slen, dst, index);
	Truncate (dst, slen + dlen);
END Insert;

(** removes all occurrences of 'c' at the head of 'string' *)
PROCEDURE TrimLeft* (VAR string: UCS32.StringJQ; c: UCS32.CharJQ);
VAR len, index: SIZE;
BEGIN
	len := Length (string); index := 0;
	WHILE (index # len) & (string[index] = c) DO INC (index) END;
	Delete (string, 0, index);
END TrimLeft;

(** removes all occurrences of 'c' at the end of 'string' *)
PROCEDURE TrimRight* (VAR string: UCS32.StringJQ; c: UCS32.CharJQ);
VAR len, index: SIZE;
BEGIN
	len := Length (string); index := len;
	WHILE (index # 0) & (string[index - 1] = c) DO DEC (index) END;
	Delete (string, index, len - index);
END TrimRight;

(** removes all occurrences of 'c' at both ends of 'string' *)
PROCEDURE Trim* (VAR string: UCS32.StringJQ; c: UCS32.CharJQ);
BEGIN
	TrimLeft(string, c);
	TrimRight(string, c)
END Trim;

(**
 * Splits 'string' into multiple strings separated by 'separator'.
 * Result properties:
 *	separator = UCS32.IntToCharJQ(0):	LEN(StringArray) = 1
 *	separator # UCS32.IntToCharJQ(0):	LEN(StringArray) = 1 + <Number of occurences of 'ch' in 'string'>
 *	StringArray[i] # NIL (0 <= i <= LEN(StringArray)-1)
 *)
PROCEDURE Split*(CONST string : UCS32.StringJQ; separator : UCS32.CharJQ) : StringArray;
VAR count, index, pos, next: SIZE; result : StringArray;
BEGIN
	count := Count (string, separator);
	NEW (result, count + 1); pos := 0;
	FOR index := 0 TO count DO
		next := Find (string, pos, separator);
		IF next = -1 THEN next := Length (string) END;
		NEW (result[index], next - pos + 1);
		Copy (string, pos, next - pos, result[index]^);
		pos := next + 1;
	END;
	RETURN result;
END Split;

PROCEDURE Join*(CONST strings : StringArray; startIndex, endIndex : SIZE; separator : UCS32.CharJQ) : String;
VAR string : String; length, pos, i : SIZE;
BEGIN
	ASSERT((strings # NIL) & (LEN(strings) >= 1));
	ASSERT((0 <= startIndex) & (startIndex <= endIndex) & (endIndex < LEN(strings)));
	length := 1; (* UCS32.IntToCharJQ(0) termination *)
	IF (separator # UCS32.IntToCharJQ(0)) THEN length := length + (endIndex - startIndex); END;
	FOR i := startIndex TO endIndex DO
		length := length + Length(strings[i]^);
	END;
	pos := 0;
	NEW(string, length);
	FOR i := startIndex TO endIndex DO
		length := Length(strings[i]^);
		Move(strings[i]^, 0, length, string^, pos);
		pos := pos + length;
		IF (i < endIndex) & (separator # UCS32.IntToCharJQ(0)) THEN string[pos] := separator; INC(pos); END;
	END;
	string^[LEN(string)-1] := UCS32.IntToCharJQ(0);
	ASSERT((string # NIL) & (LEN(string) > 0) & (string^[LEN(string)-1] = UCS32.IntToCharJQ(0)));
	RETURN string;
END Join;

(** returns the corresponding lower-case letter для латиницы и кириллицы *)
PROCEDURE LOW*(ch: UCS32.CharJQ): UCS32.CharJQ;
BEGIN
	RETURN UCS32.UCS32LOW(ch);
END LOW;

(** converts s to lower-case letters *)
PROCEDURE LowerCase*(VAR s: UCS32.StringJQ);
VAR i: SIZE;
BEGIN
	i := 0;
	WHILE (s[i] # UCS32.IntToCharJQ(0)) DO
		s[i] := UCS32.UCS32LOW(s[i]);
		INC(i)
	END
END LowerCase;

(** returns the corresponding upper-case letter для латиницы и кириллицы *)
PROCEDURE UP*(ch : UCS32.CharJQ) : UCS32.CharJQ;
BEGIN
	RETURN UCS32.UCS32UP(ch)
END UP;

PROCEDURE UpperCaseChar*(VAR ch : UCS32.CharJQ);
BEGIN
	ch := UP(ch);
END UpperCaseChar;

(** converts s to upper-case letters *)
PROCEDURE UpperCase*(VAR s: UCS32.StringJQ);
VAR i: SIZE; c : UCS32.CharJQ;
BEGIN
	i := 0;
	WHILE (s[i] # UCS32.IntToCharJQ(0)) DO
		c := s[i];
		IF (UCS32.CHARvCharJQ('a') <= c) & (c <= UCS32.CHARvCharJQ('z')) THEN s[i] := UCS32.UCS32UP(c) END;
		INC(i)
	END
END UpperCase;

(* ASCII printable characters *)
PROCEDURE IsPrintable*(ch:UCS32.CharJQ):BOOLEAN;
BEGIN
	RETURN ch.UCS32CharCode>=2 (* ЯОС изменено, чтобы включить весь юникод - надо ли быть скромнее? *)
END IsPrintable;

(** conversion functions *)

(** converts a boolean value to a string *)
PROCEDURE BoolToStr*(b: BOOLEAN; VAR s: UCS32.StringJQ);
CONST True = "True"; False = "False";
BEGIN
	IF b THEN UCS32.COPYU8vJQ(True, s)
	ELSE UCS32.COPYU8vJQ(False, s)
	END
END BoolToStr;

(** converts a string to a boolean value: b := CAP(s[0]) = "T" *)
PROCEDURE StrToBool*(CONST s: UCS32.StringJQ; VAR b: BOOLEAN);
BEGIN b := UCS32.UCS32UP(s[0]) = UCS32.CHARvCharJQ("T")
END StrToBool;

(** converts an integer value to a string *)
PROCEDURE IntToStr*(x: SIGNED64; VAR s: UCS32.StringJQ);
VAR i, j: SIZE; x0: SIGNED64; digits: ARRAY 21 OF UCS32.CharJQ;
BEGIN
	IF x < 0 THEN
		IF x = MIN( SIGNED64 ) THEN
			UCS32.COPYU8vJQ("-9223372036854775808", s) ;
			RETURN;
		ELSE
			x0 := -x; s[0] := UCS32.CHARvCharJQ("-"); j := 1;
		END;
	ELSE
		x0 := x; j := 0;
	END;

	i := 0;
	REPEAT digits[i] := UCS32.IntToCharJQ( UNSIGNED32(x0 MOD 10) + 30H );  x0 := x0 DIV 10;  INC( i ) UNTIL x0 = 0;
	REPEAT DEC( i );  s[j] := digits[i]; INC(j) UNTIL i = 0;
	s[j] := UCS32.IntToCharJQ(0);
END IntToStr;

(** converts a string to an integer. Leading whitespace is ignored *)
PROCEDURE StrToInt*(CONST str: UCS32.StringJQ; VAR val: SIGNED32);
VAR i: SIZE; d: SIGNED32; neg: BOOLEAN;
BEGIN
	i := 0; WHILE (str[i] # UCS32.IntToCharJQ(0)) & (str[i] <= UCS32.CHARvCharJQ(" ")) DO INC(i) END;
	neg := FALSE;
	IF (str[i] = UCS32.CHARvCharJQ("+")) THEN INC(i)
	ELSIF (str[i] = UCS32.CHARvCharJQ("-")) THEN neg := TRUE; INC(i)
	END;

	val := 0;
	WHILE (str[i] >= UCS32.CHARvCharJQ("0")) & (str[i] <= UCS32.CHARvCharJQ("9")) DO
		d := UCS32.UCS32CharCodeFnSIGNED16(str[i])-ORD("0");
		IF (val <= ((MAX(SIGNED32)-d) DIV 10)) THEN val := 10*val+d
		ELSIF neg & (val = 214748364) & (d = 8) & ((str[i+1] < UCS32.CHARvCharJQ("0")) OR (str[i+1] > UCS32.CHARvCharJQ("9"))) THEN
			(* SIGNED32 range: -2147483648 ... 2147483647 _> need special handling for -2147483648 here *)
			val := MIN(SIGNED32); neg := FALSE
		ELSE
			HALT(99)
		END;
		INC(i)
	END;
	IF neg THEN val := -val END
END StrToInt;

(** converts a string to a huge integer. Leading whitespace is ignored *)
PROCEDURE StrToHInt*(CONST str: UCS32.StringJQ; VAR val: SIGNED64);
VAR i: SIZE; d: SIGNED64; neg: BOOLEAN;
BEGIN
	i := 0; WHILE (str[i] # UCS32.IntToCharJQ(0)) & (str[i] <= UCS32.CHARvCharJQ(" ")) DO INC(i) END;
	neg := FALSE;
	IF (str[i] = UCS32.CHARvCharJQ("+")) THEN INC(i)
	ELSIF (str[i] = UCS32.CHARvCharJQ("-")) THEN neg := TRUE; INC(i)
	END;

	val := 0;
	WHILE (str[i] >= UCS32.CHARvCharJQ("0")) & (str[i] <= UCS32.CHARvCharJQ("9")) DO
		d := UCS32.UCS32CharCodeFn(str[i])-ORD("0");
		IF (val <= ((MAX(SIGNED64)-d) DIV 10)) THEN val := 10*val+d
		ELSIF neg & (val = 922337203685477580) & (d = 8) & ((str[i+1] < UCS32.CHARvCharJQ("0")) OR (str[i+1] > UCS32.CHARvCharJQ("9"))) THEN
			(* SIGNED64 range: -9223372036854775808 ... 9223372036854775807 _> need special handling for -9223372036854775808 here *)
			val := MIN(SIGNED64); neg := FALSE
		ELSE
			HALT(99)
		END;
		INC(i)
	END;
	IF neg THEN val := -val END
END StrToHInt;

(** converts a string to a size. Leading whitespace is ignored *)
PROCEDURE StrToSize*(CONST str: UCS32.StringJQ; VAR val: SIZE);
VAR i: SIZE; d: SIZE; neg: BOOLEAN;
BEGIN
	i := 0; WHILE (str[i] # UCS32.IntToCharJQ(0)) & (str[i] <= UCS32.CHARvCharJQ(" ")) DO INC(i) END;
	neg := FALSE;
	IF (str[i] = UCS32.CHARvCharJQ("+")) THEN INC(i)
	ELSIF (str[i] = UCS32.CHARvCharJQ("-")) THEN neg := TRUE; INC(i)
	END;

	val := 0;
	WHILE (str[i] >= UCS32.CHARvCharJQ("0")) & (str[i] <= UCS32.CHARvCharJQ("9")) DO
		d := UCS32.UCS32CharCodeFn(str[i])-ORD("0");
		IF (val <= ((MAX(SIZE)-d) DIV 10)) THEN val := 10*val+d
		ELSIF neg & (val = MAX(SIZE) DIV 10) & (d = MAX(SIZE) MOD 10) & ((str[i+1] < UCS32.CHARvCharJQ("0")) OR (str[i+1] > UCS32.CHARvCharJQ("9"))) THEN
			(* SIZE range needs special handling *)
			val := MIN(SIZE); neg := FALSE
		ELSE
			HALT(99)
		END;
		INC(i)
	END;
	IF neg THEN val := -val END
END StrToSize;

(** Convert the substring beginning at position i in str into an integer. Leading whitespace is ignored.
	After the conversion i points to the first character after the integer. *)
PROCEDURE StrToIntPos*(CONST str: UCS32.StringJQ; VAR val: SIGNED32; VAR i: SIZE);
VAR noStr: ARRAY 16 OF UCS32.CharJQ;
BEGIN
	WHILE (str[i] # UCS32.IntToCharJQ(0)) & (str[i] <= UCS32.CHARvCharJQ(" ")) DO INC(i) END;
	val := 0;
	IF str[i] = UCS32.CHARvCharJQ("-") THEN
		noStr[val] := str[i]; INC(val); INC(i);
		WHILE (str[i] # UCS32.IntToCharJQ(0)) & (str[i] <= UCS32.CHARvCharJQ(" ")) DO INC(i) END
	END;
	WHILE (str[i] >= UCS32.CHARvCharJQ("0")) & (str[i] <= UCS32.CHARvCharJQ("9")) DO noStr[val] := str[i]; INC(val); INC(i) END;
	noStr[val] := UCS32.IntToCharJQ(0);
	StrToInt(noStr, val)
END StrToIntPos;

(** Convert the substring beginning at position i in str into a huge integer. Leading whitespace is ignored.
	After the conversion i points to the first character after the integer. *)
PROCEDURE StrToHIntPos*(CONST str: UCS32.StringJQ; VAR val: SIGNED64; VAR i: SIZE);
VAR noStr: ARRAY 32 OF UCS32.CharJQ;
BEGIN
	WHILE (str[i] # UCS32.IntToCharJQ(0)) & (str[i] <= UCS32.CHARvCharJQ(" ")) DO INC(i) END;
	val := 0;
	IF str[i] = UCS32.CHARvCharJQ("-") THEN
		noStr[val] := str[i]; INC(val); INC(i);
		WHILE (str[i] # UCS32.IntToCharJQ(0)) & (str[i] <= UCS32.CHARvCharJQ(" ")) DO INC(i) END
	END;
	WHILE (str[i] >= UCS32.CHARvCharJQ("0")) & (str[i] <= UCS32.CHARvCharJQ("9")) DO noStr[val] := str[i]; INC(val); INC(i) END;
	noStr[val] := UCS32.IntToCharJQ(0);
	StrToHInt(noStr, val)
END StrToHIntPos;

(** Convert the substring beginning at position i in str into a size. Leading whitespace is ignored.
	After the conversion i points to the first character after the integer. *)
PROCEDURE StrToSizePos*(CONST str: UCS32.StringJQ; VAR val: SIZE; VAR i: SIZE);
VAR noStr: ARRAY 32 OF UCS32.CharJQ;
BEGIN
	WHILE (str[i] # UCS32.IntToCharJQ(0)) & (str[i] <= UCS32.CHARvCharJQ(" ")) DO INC(i) END;
	val := 0;
	IF str[i] = UCS32.CHARvCharJQ("-") THEN
		noStr[val] := str[i]; INC(val); INC(i);
		WHILE (str[i] # UCS32.IntToCharJQ(0)) & (str[i] <= UCS32.CHARvCharJQ(" ")) DO INC(i) END
	END;
	WHILE (str[i] >= UCS32.CHARvCharJQ("0")) & (str[i] <= UCS32.CHARvCharJQ("9")) DO noStr[val] := str[i]; INC(val); INC(i) END;
	noStr[val] := UCS32.IntToCharJQ(0);
	StrToSize(noStr, val)
END StrToSizePos;

(** converts an integer value to a hex string *)
PROCEDURE IntToHexStr*(h : SIGNED64; width: INTEGER; VAR s: UCS32.StringJQ);
VAR c: UCS32.CharJQ;
BEGIN
	IF (width <= 0) THEN width := 8 END;

	DEC(width); (* opov *)
	s[width+1] := UCS32.IntToCharJQ(0);
	WHILE (width >= 0) DO
		c := UCS32.IntToCharJQ(UNSIGNED32(h MOD 10H) + ORD("0"));
		IF (c > UCS32.CHARvCharJQ("9")) THEN c := UCS32.IntToCharJQ(SIGNED32(h MOD 10H - 10) + ORD("A")) END;
		s[width] := c; h := h DIV 10H; DEC(width)
	END
END IntToHexStr;

(** converts a hex string to an integer. Leading whitespace is ignored. res=Ok indicates success, val=0 on failure. *)
PROCEDURE HexStrToInt*(CONST string: UCS32.StringJQ; VAR val: SIGNED32; VAR res: INTEGER);
VAR length, i : SIZE; ch: UCS32.CharJQ; negative : BOOLEAN;
BEGIN
	length := LEN(string); val := 0; res := -1;
	(* skip whitespace *)
	i := 0; WHILE (i < length) & (string[i] # UCS32.IntToCharJQ(0)) & (string[i] <= UCS32.CHARvCharJQ(" ")) DO INC(i); END;
	IF (i < length) THEN
		IF (string[i] = UCS32.CHARvCharJQ("+")) OR (string[i] = UCS32.CHARvCharJQ("-")) THEN
			negative := (string[i] = UCS32.CHARvCharJQ("-")); INC(i);
		ELSE
			negative := FALSE;
		END;
		LOOP
			IF (i >= length) OR (string[i] = UCS32.IntToCharJQ(0)) THEN EXIT; END;
			ch := string[i];
			IF (ch >= UCS32.CHARvCharJQ("0")) & (ch <= UCS32.CHARvCharJQ("9")) THEN val := 16 * val + UCS32.UCS32CharCodeFnSIGNED16(ch) - ORD("0");
			ELSIF (UCS32.UCS32UP(ch) >= UCS32.CHARvCharJQ("A")) & (UCS32.UCS32UP(ch) <= UCS32.CHARvCharJQ("F")) THEN val := 16 * val + UCS32.UCS32CharCodeFnSIGNED16(UCS32.UCS32UP(ch)) - ORD("A") + 10;
			ELSE EXIT;
			END;
			INC(i);
		END;
		IF (i < length) & (string[i] = UCS32.CHARvCharJQ("H")) THEN INC(i); END; (* skip optional "H" *)
		IF (i < length) & (string[i] = UCS32.IntToCharJQ(0)) THEN
			IF negative THEN val := -val END;
			res := Ok;
		END;
	END;
END HexStrToInt;

(** converts a hex string to a size. Leading whitespace is ignored. res=Ok indicates success, val=0 on failure. *)
PROCEDURE HexStrToSize*(CONST string: UCS32.StringJQ; VAR val: SIZE; VAR res: INTEGER);
VAR length, i : SIZE; ch: UCS32.CharJQ;
BEGIN
	length := LEN(string); val := 0; res := -1;
	(* skip whitespace *)
	i := 0; WHILE (i < length) & (string[i] # UCS32.IntToCharJQ(0)) & (string[i] <= UCS32.CHARvCharJQ(" ")) DO INC(i); END;
	IF (i < length) THEN
		LOOP
			IF (i >= length) OR (string[i] = UCS32.IntToCharJQ(0)) THEN EXIT; END;
			ch := string[i];
			IF (ch >= UCS32.CHARvCharJQ("0")) & (ch <= UCS32.CHARvCharJQ("9")) THEN val := 16 * val + UCS32.UCS32CharCodeFn(ch) - ORD("0");
			ELSIF (UCS32.UCS32UP(ch) >= UCS32.CHARvCharJQ("A")) & (UCS32.UCS32UP(ch) <= UCS32.CHARvCharJQ("F")) THEN val := 16 * val + UCS32.UCS32CharCodeFn(UCS32.UCS32UP(ch)) - ORD("A") + 10;
			ELSE EXIT;
			END;
			INC(i);
		END;
		IF (i < length) & (string[i] = UCS32.CHARvCharJQ("H")) THEN INC(i); END; (* skip optional "H" *)
		IF (i < length) & (string[i] = UCS32.IntToCharJQ(0)) THEN
			res := Ok;
		END;
	END;
END HexStrToSize;

(** converts a real value to a string *)
PROCEDURE FloatToStr*(x: FLOAT64; n, f, D: SIGNED32; VAR str: UCS32.StringJQ);
BEGIN
	RC.RealToUCS32StringJQFix( x, n, f, D, str )
END FloatToStr;

PROCEDURE AddressToStr*(adr : ADDRESS; VAR str : UCS32.StringJQ);
BEGIN
	IntToHexStr(adr, 2*SIZEOF(ADDRESS), str);
END AddressToStr;

(** converts a string to a real value *)
PROCEDURE StrToFloat*(CONST s: UCS32.StringJQ; VAR r: FLOAT64);
BEGIN
	RC.UCS32StringJQToReal(s,r);
END StrToFloat;

(** converts a set to a string *)
PROCEDURE SetToStr*(set: SET; VAR s: UCS32.StringJQ);
VAR i, j, k: SIGNED16; noFirst: BOOLEAN;
BEGIN
	s[0] := UCS32.CHARvCharJQ("{"); i := 0; k := 1; noFirst := FALSE;
	WHILE i <= MAX(SET) DO
		IF i IN set THEN
			IF noFirst THEN s[k] := UCS32.CHARvCharJQ(","); INC(k) ELSE noFirst := TRUE END;
			IF i >= 10 THEN s[k] := UCS32.IntToCharJQ(i DIV 10 + 30H); INC(k) END;
			s[k] := UCS32.IntToCharJQ(i MOD 10 + 30H); INC(k);
			j := i; INC(i);
			WHILE (i <= MAX(SET)) & (i IN set) DO INC(i) END;
			IF i-2 > j THEN
				s[k] := UCS32.CHARvCharJQ("."); s[k+1] := UCS32.CHARvCharJQ("."); INC(k, 2); j := i - 1;
				IF j >= 10 THEN s[k] := UCS32.IntToCharJQ(j DIV 10 + 30H); INC(k) END;
				s[k] := UCS32.IntToCharJQ(j MOD 10 + 30H); INC(k)
			ELSE i := j
			END
		END;
		INC(i)
	END;
	s[k] := UCS32.CHARvCharJQ("}"); s[k+1] := UCS32.IntToCharJQ(0)
END SetToStr;

(** converts a string to a set *)
PROCEDURE StrToSet*(CONST str: UCS32.StringJQ; VAR set: SET);
VAR i, d, d1: SIGNED16; dot: BOOLEAN;
BEGIN
	set := {}; dot := FALSE;
	i := 0;
	WHILE (str[i] # UCS32.IntToCharJQ(0)) & (str[i] # UCS32.CHARvCharJQ("}")) DO
		WHILE (str[i] # UCS32.IntToCharJQ(0)) & ((str[i] < UCS32.CHARvCharJQ("0")) OR (UCS32.CHARvCharJQ("9") < str[i])) DO INC(i) END;
		d := 0; WHILE (UCS32.CHARvCharJQ("0") <= str[i]) & (str[i] <= UCS32.CHARvCharJQ("9")) DO d := d*10 + UCS32.UCS32CharCodeFnSIGNED16(str[i]) - 30H; INC(i) END;
		IF (str[i] = UCS32.IntToCharJQ(0)) THEN RETURN; END;
		IF d <= MAX(SET) THEN INCL(set, d) END;
		IF dot THEN
			WHILE (d1 <= MAX(SET)) & (d1 < d) DO INCL(set, d1); INC(d1) END;
			dot := FALSE
		END;
		WHILE (str[i] = UCS32.CHARvCharJQ(" ")) DO INC(i) END;
		IF (str[i] = UCS32.CHARvCharJQ(".")) THEN d1 := d + 1; dot := TRUE END
	END
END StrToSet;

(** converts a time to a string, using the 'TimeFormat' format. C.f. FormatDateTime *)
PROCEDURE TimeToStr*(time: Dates.DateTime; VAR s: UCS32.StringJQ);
BEGIN FormatDateTime(TimeFormat, time, s)
END TimeToStr;

(** converts a string to a time *)
PROCEDURE StrToTime*(CONST str: UCS32.StringJQ; VAR dt: Dates.DateTime);
VAR i: SIZE;
BEGIN
	i := 0;
	WHILE (str[i] # UCS32.IntToCharJQ(0)) & ((str[i] < UCS32.CHARvCharJQ("0")) OR (str[i] > UCS32.CHARvCharJQ("9"))) DO INC(i) END;
	StrToIntPos(str, dt.hour, i);
	WHILE (str[i] # UCS32.IntToCharJQ(0)) & ((str[i] < UCS32.CHARvCharJQ("0")) OR (str[i] > UCS32.CHARvCharJQ("9"))) DO INC(i) END;
	StrToIntPos(str, dt.minute, i);
	WHILE (str[i] # UCS32.IntToCharJQ(0)) & ((str[i] < UCS32.CHARvCharJQ("0")) OR (str[i] > UCS32.CHARvCharJQ("9"))) DO INC(i) END;
	StrToIntPos(str, dt.second, i);
	ASSERT(Dates.ValidDateTime(dt));
END StrToTime;

(** converts a date to a string, using the 'DateFormat' format. C.f. FormatDateTime *)
PROCEDURE DateToStr*(date: Dates.DateTime; VAR s: UCS32.StringJQ);
BEGIN FormatDateTime(DateFormat, date, s)
END DateToStr;

(** Convert a string of the form 'day month year' into an date value. Leading whitespace is ignored. *)
PROCEDURE StrToDate*(CONST str: UCS32.StringJQ; VAR dt: Dates.DateTime);
VAR i: SIZE;
BEGIN
	i := 0;
	WHILE (str[i] # UCS32.IntToCharJQ(0)) & ((str[i].UCS32CharCode < ORD("0")) OR (str[i].UCS32CharCode > ORD("9"))) DO INC(i) END;
	StrToIntPos(str, dt.day, i);
	WHILE (str[i] # UCS32.IntToCharJQ(0)) & ((str[i].UCS32CharCode < ORD("0")) OR (str[i].UCS32CharCode > ORD("9"))) DO INC(i) END;
	StrToIntPos(str, dt.month, i);
	WHILE (str[i] # UCS32.IntToCharJQ(0)) & ((str[i].UCS32CharCode < ORD("0")) OR (str[i].UCS32CharCode > ORD("9"))) DO INC(i) END;
	StrToIntPos(str, dt.year, i);
	ASSERT(Dates.ValidDateTime(dt));
END StrToDate;

(** converts a TDateTime into a string.
	Format rules:
	yyyy	->	four-digit year, e.g. 2001
	yy		->	two-digit year, e.g. 01
	mmmm ->	clear-text month, e.g. May
	mmm  ->  clear-text month, abbreviated, e.g. Sep
	mm	->	two-digit month, e.g. 05
	m		->	month, e.g. 5
	dd		->	two-digit day, e.g. 02
	d		->	day, e.g. 2 or 15
	wwww	-> clear-text week-day, e.g. Monday
	www	->  clear-text week-day, e.g. Mon

	hh		->	two-digit hour, e.g. 08
	h		->	hour, e.g. 8
	nn		-> two-digit minute, e.g. 03
	n		-> minute, e.g. 3
	ss		-> two-digit second, e.g. 00
	s		-> second, e.g. 0
	any other characters will be copied 1:1 to the result string

	Examples:
	"yyyy.mm.dd hh:nn:ss"	-> "2002.01.01 17:08:00"
	"yyyyyy.m.ddd"				-> "002002.1.001"
	"wwww, mmmm d, yyyy"			-> "Tuesday, September 11, 2001"
*)
PROCEDURE FormatDateTime*(CONST format: UCS32.StringJQ; dt: Dates.DateTime; VAR result: UCS32.StringJQ);
VAR i,k,l,len,n: SIZE; m,y,w,dw: SIGNED32;

	PROCEDURE IntToStr(v: SIGNED32; len: SIZE; VAR s: UCS32.StringJQ; VAR pos: SIZE);
	VAR i: SIZE;
	BEGIN
		FOR i := 1 TO len DO s[pos+len-i] := UCS32.IntToCharJQ(ORD("0") + v MOD 10); v := v DIV 10 END;
		INC(pos, len)
	END IntToStr;

BEGIN
	k := 0;
	IF Dates.ValidDateTime(dt) THEN
		i := 0;
		WHILE (format[i] # UCS32.IntToCharJQ(0)) DO
			n := 1; WHILE (format[i+n] = format[i]) DO INC(n) END;
			len := n;
			CASE format[i].UCS32CharCode OF
			|ORD("w"): Dates.WeekDate(dt, y, w, dw); DEC(dw);
					IF (len >= 4) THEN len := 10 END;
					l := 0; WHILE (l < len) & (UCS32.CHARvCharJQ(Dates.Days[dw,l]) # UCS32.IntToCharJQ(0)) DO result[k] := UCS32.CHARvCharJQ(Dates.Days[dw,l]); INC(k); INC(l) END;
			|ORD("y"): IntToStr(dt.year, n, result, k);
			|ORD("m"): IF (n >= 3) THEN
						m := dt.month-1; ASSERT((m>=0) & (m<12));
						IF (len > 3) THEN len := 12 END;
						l := 0; WHILE (l < len) & (UCS32.CHARvCharJQ(Dates.Months[m,l]) # UCS32.IntToCharJQ(0)) DO result[k] := UCS32.CHARvCharJQ(Dates.Months[m, l]); INC(k); INC(l) END
					ELSE
						IF (len=1) & (dt.month > 9) THEN len := 2; END;
						IntToStr(dt.month, len, result, k)
					END;
			|ORD("d"): IF (len=1) & (dt.day > 9) THEN len := 2 END;
					IntToStr(dt.day, len, result, k);
			|ORD("h"): IF (len=1) & (dt.hour > 9) THEN len := 2 END;
					IntToStr(dt.hour, len, result, k);
			|ORD("n"): IF (len=1) & (dt.minute > 9) THEN len := 2 END;
					IntToStr(dt.minute, len, result, k);
			|ORD("s"): IF (len=1) & (dt.second > 9) THEN len := 2 END;
					IntToStr(dt.second, len, result, k);
			ELSE result[k] := format[i]; INC(k); n := 1
			END;
			INC(i, n)
		END
	END;
	result[k] := UCS32.IntToCharJQ(0)
END FormatDateTime;

PROCEDURE ShowTimeDifference*(t1, t2 : Dates.DateTime; out : Streams.Writer);
VAR days, hours, minutes, seconds : SIGNED32; show : BOOLEAN;
BEGIN
	Dates.TimeDifference(t1, t2, days, hours, minutes, seconds);
	show := FALSE;
	IF (days > 0) THEN out.Int(days, 0); out.String("d "); show := TRUE; END;
	IF show OR (hours > 0) THEN out.Int(hours, 0); out.String("h "); show := TRUE;  END;
	IF show OR (minutes > 0) THEN out.Int(minutes, 0); out.String("m "); show := TRUE; END;
	out.Int(seconds, 0); out.String("s");
END ShowTimeDifference;

PROCEDURE NewString*(CONST str : UCS32.StringJQ) : String;
VAR l : SIZE; s : String;
BEGIN
	l := Length(str) + 1;
	NEW(s, l);
	UCS32.COPYJQvJQ(str, s^);
	RETURN s
END NewString;

(* NewStringFromUTF8 устарела *)
PROCEDURE NewStringFromUTF8*(CONST str : ARRAY OF CHAR) : String;
VAR l : SIZE; s : String;
BEGIN
	l := ASCIIStrings.Length(str) + 1;
	NEW(s, l);
	UCS32.COPYU8vJQ(str, s^);
	RETURN s
END NewStringFromUTF8;


PROCEDURE SetAOC*(CONST str: UCS32.StringJQ; VAR s: String);
VAR l: SIZE;
BEGIN
	l := Length(str) + 1;
	IF (s = NIL) OR (LEN(s^) < l) THEN
		NEW(s,l)
	END;
	UCS32.COPYJQvJQ(str, s^);
END SetAOC;

(* Gets extension of the given name, returns file (without extension) and ext *)
PROCEDURE GetExtension* (CONST name : UCS32.StringJQ; VAR file, ext: UCS32.StringJQ);
VAR len, index: SIZE;
BEGIN
	len := Length (name); index := len;
	WHILE (index # 0) & (name[index- 1] # UCS32.CHARvCharJQ('.')) DO DEC (index) END;
	IF index = 0 THEN
		Copy (name, 0, len, file);
		Truncate (ext, 0);
	ELSE
		Copy (name, 0, index - 1, file);
		Copy (name, index, len - index, ext);
	END
END GetExtension;

(* Returns a new string that is a concatenation of s1 and s2: s := s1 || s2 *)
PROCEDURE ConcatToNew*(CONST s1, s2 : UCS32.StringJQ) : String;
VAR
	s : String;
BEGIN
	NEW(s, Length(s1) + Length(s2) + 1);
	Concat(s1, s2, s^);
	RETURN s;
END ConcatToNew;

(* Tests if string s ends with the specified suffix *)
PROCEDURE EndsWith*(CONST suffix, s : UCS32.StringJQ) : BOOLEAN;
BEGIN
	RETURN StartsWith(suffix, Length(s)-Length(suffix), s);
END EndsWith;

(* Tests if two strings are equal *)
(* This procedure makes sense, because "proc(..)^ = proc(..)^" is not supported by the compiler! *)
PROCEDURE Equal*(s1, s2 : String) : BOOLEAN;
BEGIN
	ASSERT(s1 # NIL);
	ASSERT(s2 # NIL);
	RETURN s1^ = s2^;
END Equal;

(** Returns TRUE if the UCS32.IntToCharJQ(0)-terminated string contains the character 'ch', FALSE otherwise. *)
PROCEDURE ContainsChar*(CONST string : UCS32.StringJQ; ch : UCS32.CharJQ; ignoreCase : BOOLEAN) : BOOLEAN;
BEGIN
	IF ignoreCase THEN
		RETURN (Find (string, 0, LOW (ch)) # -1) & (Find (string, 0, UP (ch)) # -1)
	ELSE
		RETURN Find (string, 0, ch) # -1
	END
END ContainsChar;

(* Returns the index within string s of the first occurrence of the specified character *)
PROCEDURE IndexOfByte2*(ch : UCS32.CharJQ; CONST s : UCS32.StringJQ) : SIZE;
BEGIN
	RETURN IndexOfByte(ch, 0, s);
END IndexOfByte2;

(* Returns the index within string s of the first occurrence of the specified character, starting the search at the specified index *)
PROCEDURE IndexOfByte*(ch : UCS32.CharJQ; fromIndex : SIZE; CONST s : UCS32.StringJQ) : SIZE;
VAR
	lenString, i : SIZE;
BEGIN
	lenString := Length(s);
	IF fromIndex < 0 THEN
		fromIndex := 0;
	ELSIF fromIndex >= lenString THEN
		RETURN -1;
	END;
	FOR i := fromIndex TO lenString-1 DO
		IF s[i] = ch THEN RETURN i; END;
	END;
	RETURN -1;
END IndexOfByte;

(* Returns the index within string s of the last occurrence of the specified character *)
PROCEDURE LastIndexOfByte2*(ch : UCS32.CharJQ; CONST s : UCS32.StringJQ) : SIZE;
BEGIN
	RETURN LastIndexOfByte(ch, Length(s)-1, s);
END LastIndexOfByte2;

(* Returns the index within string s of the last occurrence of the specified character, searching backward starting at the specified index *)
PROCEDURE LastIndexOfByte*(ch : UCS32.CharJQ; fromIndex : SIZE; CONST s : UCS32.StringJQ) : SIZE;
VAR
	lenString, i : SIZE;
BEGIN
	lenString := Length(s);
	IF fromIndex >= lenString THEN
		fromIndex := lenString - 1;
	END;
	FOR i := fromIndex TO 0 BY -1 DO
		IF s[i] = ch THEN RETURN i; END;
	END;
	RETURN -1;
END LastIndexOfByte;

(* Returns a new string that is a copy of s in lower-case letters *)
PROCEDURE LowerCaseInNew*(CONST s : UCS32.StringJQ) : String;
VAR
	n : String;
BEGIN
	n := NewString(s);
	LowerCase(n^);
	RETURN n;
END LowerCaseInNew;

(* Tests if string s starts with the specified prefix *)
PROCEDURE StartsWith2*(CONST prefix, s : UCS32.StringJQ) : BOOLEAN;
BEGIN
	RETURN StartsWith(prefix, 0, s);
END StartsWith2;

(* Tests if string s starts with the specified prefix beginning a specified index *)
PROCEDURE StartsWith*(CONST prefix : UCS32.StringJQ; toffset : SIZE; CONST s : UCS32.StringJQ) : BOOLEAN;
VAR
	lenString, lenPrefix, i : SIZE;
BEGIN
	lenString := Length(s);
	lenPrefix := Length(prefix);
	IF (toffset < 0) OR (toffset > lenString - lenPrefix) THEN
		RETURN FALSE;
	END;
	FOR i := 0 TO lenPrefix-1 DO
		IF prefix[i] # s[toffset + i] THEN RETURN FALSE; END;
	END;
	RETURN TRUE;
END StartsWith;

(* Returns a new string that is a substring of string s *)
PROCEDURE Substring2*(beginIndex : SIZE; CONST s : UCS32.StringJQ) : String;
BEGIN
	RETURN Substring(beginIndex, Length(s), s);
END Substring2;

(* Returns a new string that is a substring of string s *)
(* s[endIndex-1] is the last character of the new string *)
PROCEDURE Substring*(beginIndex : SIZE; endIndex : SIZE; CONST s : UCS32.StringJQ) : String;
VAR
	lenString, lenNewString : SIZE;
	st : String;
BEGIN
	ASSERT(beginIndex >= 0);
	lenString := Length(s);
	ASSERT(endIndex <= lenString);
	lenNewString := endIndex - beginIndex;
	ASSERT(lenNewString >= 0);
	NEW(st, lenNewString + 1);
	Copy(s, beginIndex, lenNewString, st^);
	RETURN st;
END Substring;

(* Omitts leading and trailing whitespace of string s *)
PROCEDURE TrimWS*(VAR s : UCS32.StringJQ);
VAR
	len, start, i : SIZE;
BEGIN
	len := Length(s);
	start := 0;
	WHILE (start < len) & (UCS32.UCS32CharCodeFn(s[start]) < 33) DO
		INC(start);
	END;
	WHILE (start < len) & (UCS32.UCS32CharCodeFn(s[len-1]) < 33) DO
		DEC(len);
	END;
	IF start > 0 THEN
		FOR i := 0 TO len - start - 1 DO
			s[i] := s[start + i];
		END;
		s[i] := UCS32.IntToCharJQ(0);
	ELSE
		s[len] := UCS32.IntToCharJQ(0);
	END;
END TrimWS;

(* Returns a new string that is a copy of s in upper-case letters *)
PROCEDURE UpperCaseInNew*(CONST s : UCS32.StringJQ) : String;
VAR n : String;
BEGIN
	n := NewString(s);
	UpperCase(n^);
	RETURN n;
END UpperCaseInNew;

BEGIN
	UCS32.COPYU8vJQ("dd.mmm.yyyy",DateFormat);
	UCS32.COPYU8vJQ("hh:nn:ss",TimeFormat);
END UCS32Strings.

System.Free Strings ~
